<?xml version="1.0" encoding="UTF-8" standalone="no"?>
<!-- Created with Inkscape (http://www.inkscape.org/) -->

<svg
   xmlns:ns0="http://www.iki.fi/pav/software/textext/"
   xmlns:dc="http://purl.org/dc/elements/1.1/"
   xmlns:cc="http://creativecommons.org/ns#"
   xmlns:rdf="http://www.w3.org/1999/02/22-rdf-syntax-ns#"
   xmlns:svg="http://www.w3.org/2000/svg"
   xmlns="http://www.w3.org/2000/svg"
   xmlns:xlink="http://www.w3.org/1999/xlink"
   xmlns:sodipodi="http://sodipodi.sourceforge.net/DTD/sodipodi-0.dtd"
   xmlns:inkscape="http://www.inkscape.org/namespaces/inkscape"
   id="svg3004"
   version="1.1"
   inkscape:version="0.48.5 r10040"
   width="531.49605"
   height="531.49605"
   xml:space="preserve"
   sodipodi:docname="gaussianKernelDemo.svg"><sodipodi:namedview
     pagecolor="#ffffff"
     bordercolor="#666666"
     borderopacity="1"
     objecttolerance="10"
     gridtolerance="10"
     guidetolerance="10"
     inkscape:pageopacity="0"
     inkscape:pageshadow="2"
     inkscape:window-width="1920"
     inkscape:window-height="1134"
     id="namedview3006"
     showgrid="false"
     inkscape:zoom="2.1928123"
     inkscape:cx="188.05888"
     inkscape:cy="285.81581"
     inkscape:window-x="0"
     inkscape:window-y="27"
     inkscape:window-maximized="1"
     inkscape:current-layer="g3012" /><metadata
     id="metadata3010"><rdf:RDF><cc:Work
         rdf:about=""><dc:format>image/svg+xml</dc:format><dc:type
           rdf:resource="http://purl.org/dc/dcmitype/StillImage" /><dc:title /></cc:Work></rdf:RDF></metadata><defs
     id="defs3008"><clipPath
       clipPathUnits="userSpaceOnUse"
       id="clipPath3020"><path
         d="m 0,372.048 425.195,0 0,-318.898 L 0,53.15 0,372.048 z"
         id="path3022" /></clipPath><clipPath
       clipPathUnits="userSpaceOnUse"
       id="clipPath3030"><path
         d="m 0,53 426,0 0,320 L 0,373 0,53 z"
         id="path3032" /></clipPath></defs><g
     id="g3012"
     inkscape:groupmode="layer"
     inkscape:label="gaussianKernelDemo"
     transform="matrix(1.25,0,0,-1.25,0,531.49605)"><g
       id="g3014" /><path
       inkscape:connector-curvature="0"
       id="path3042"
       style="fill:#ffffff;fill-opacity:1;fill-rule:nonzero;stroke:none"
       d="m 55.363,348.24 329.418,0 0,-50.379 -329.418,0 0,50.379 z" /><path
       d="m 55.363,297.86084 329.418,0"
       style="fill:none;stroke:#262626;stroke-width:0.369113;stroke-linecap:square;stroke-linejoin:round;stroke-miterlimit:10;stroke-opacity:1;stroke-dasharray:none"
       id="path3046"
       inkscape:connector-curvature="0" /><path
       d="m 55.363,348.23984 329.418,0"
       style="fill:none;stroke:#262626;stroke-width:0.369113;stroke-linecap:square;stroke-linejoin:round;stroke-miterlimit:10;stroke-opacity:1;stroke-dasharray:none"
       id="path3050"
       inkscape:connector-curvature="0" /><path
       d="m 384.781,297.86084 0,50.379"
       style="fill:none;stroke:#262626;stroke-width:0.369113;stroke-linecap:square;stroke-linejoin:round;stroke-miterlimit:10;stroke-opacity:1;stroke-dasharray:none"
       id="path3054"
       inkscape:connector-curvature="0" /><path
       d="m 55.363,297.86084 0,50.379"
       style="fill:none;stroke:#262626;stroke-width:0.369113;stroke-linecap:square;stroke-linejoin:round;stroke-miterlimit:10;stroke-opacity:1;stroke-dasharray:none"
       id="path3058"
       inkscape:connector-curvature="0" /><path
       d="m 384.781,297.86084 -3.293,0"
       style="fill:none;stroke:#262626;stroke-width:0.369113;stroke-linecap:square;stroke-linejoin:round;stroke-miterlimit:10;stroke-opacity:1;stroke-dasharray:none"
       id="path3062"
       inkscape:connector-curvature="0" /><path
       d="m 384.781,323.04884 -3.293,0"
       style="fill:none;stroke:#262626;stroke-width:0.369113;stroke-linecap:square;stroke-linejoin:round;stroke-miterlimit:10;stroke-opacity:1;stroke-dasharray:none"
       id="path3066"
       inkscape:connector-curvature="0" /><path
       d="m 384.781,348.23984 -3.293,0"
       style="fill:none;stroke:#262626;stroke-width:0.369113;stroke-linecap:square;stroke-linejoin:round;stroke-miterlimit:10;stroke-opacity:1;stroke-dasharray:none"
       id="path3070"
       inkscape:connector-curvature="0" /><path
       d="m 55.363,297.86084 3.297,0"
       style="fill:none;stroke:#262626;stroke-width:0.369113;stroke-linecap:square;stroke-linejoin:round;stroke-miterlimit:10;stroke-opacity:1;stroke-dasharray:none"
       id="path3074"
       inkscape:connector-curvature="0" /><path
       d="m 55.363,323.04884 3.297,0"
       style="fill:none;stroke:#262626;stroke-width:0.369113;stroke-linecap:square;stroke-linejoin:round;stroke-miterlimit:10;stroke-opacity:1;stroke-dasharray:none"
       id="path3078"
       inkscape:connector-curvature="0" /><path
       d="m 55.363,348.23984 3.297,0"
       style="fill:none;stroke:#262626;stroke-width:0.369113;stroke-linecap:square;stroke-linejoin:round;stroke-miterlimit:10;stroke-opacity:1;stroke-dasharray:none"
       id="path3082"
       inkscape:connector-curvature="0" /><text
       id="text3084"
       transform="scale(1,-1)"
       x="388.02902"
       y="-294.81421"><tspan
         id="tspan3086"
         y="-294.81421"
         x="388.02902"
         style="font-size:8.85826683px;font-variant:normal;font-weight:normal;writing-mode:lr-tb;fill:#262626;fill-opacity:1;fill-rule:nonzero;stroke:none;font-family:DejaVu Sans;-inkscape-font-specification:DejaVuSans">0</tspan><tspan
         id="tspan3088"
         sodipodi:role="line"
         y="-320.00491"
         x="388.02902 393.6629 396.47095"
         style="font-size:8.85826683px;font-variant:normal;font-weight:normal;writing-mode:lr-tb;fill:#262626;fill-opacity:1;fill-rule:nonzero;stroke:none;font-family:DejaVu Sans;-inkscape-font-specification:DejaVuSans">0.2</tspan><tspan
         id="tspan3090"
         sodipodi:role="line"
         y="-345.19562"
         x="388.02902 393.6629 396.47095"
         style="font-size:8.85826683px;font-variant:normal;font-weight:normal;writing-mode:lr-tb;fill:#262626;fill-opacity:1;fill-rule:nonzero;stroke:none;font-family:DejaVu Sans;-inkscape-font-specification:DejaVuSans">0.4</tspan></text>
<g
       id="g9118"
       style="fill:none;stroke:#0000ff"><path
         inkscape:connector-curvature="0"
         id="path3094"
         style="fill:none;stroke:#0000ff;stroke-width:1.47639596000000006;stroke-linecap:butt;stroke-linejoin:round;stroke-miterlimit:10;stroke-opacity:1;stroke-dasharray:none"
         d="m 55.363,344.27084 0.879,-0.199 0.879,-0.066 0.879,-0.332 0.879,-0.129 0.879,-0.18 0.879,-0.106 0.875,-0.25 0.879,0.09 0.879,-0.355 0.878,-0.094 0.879,-0.422 0.879,-0.25 0.879,-0.363 0.879,-0.141 0.875,-0.113 0.879,-0.426 0.879,-0.265 0.879,-0.516 0.879,-0.312 0.879,-0.051 0.878,-0.926 0.879,-0.031 0.879,-0.492 0.875,-0.379 0.879,-0.176 0.879,-0.379 0.879,-0.57 0.879,-0.782 0.879,-0.304 0.879,0.078 0.879,-0.699 0.875,-0.489 0.879,-0.84 0.878,0.04 0.879,-0.727 0.879,-0.254 0.879,-0.613 0.879,-0.313 0.879,-0.812 0.879,-0.36 0.875,-0.242 0.879,-0.59 0.879,-0.484 0.879,-0.324 0.879,-0.641 0.878,-0.551 0.879,-0.324 0.879,-0.871 0.875,-0.164" /><path
         inkscape:connector-curvature="0"
         id="path3098"
         style="fill:none;stroke:#0000ff;stroke-width:1.47639596000000006;stroke-linecap:butt;stroke-linejoin:round;stroke-miterlimit:10;stroke-opacity:1;stroke-dasharray:none"
         d="m 97.531,326.73584 0.875,-0.164 0.879,-0.41 0.879,-0.578 0.879,-0.446 0.879,-0.589 0.879,-0.207 0.879,-0.575 0.879,-0.429 0.875,-0.426 0.878,-0.567 0.879,-0.359 0.879,-0.312 0.879,-0.434 0.879,-0.684 0.879,-0.398 0.879,-0.106 0.879,-0.476 0.875,-0.434 0.879,-0.332 0.879,-0.316 0.879,-0.656 0.878,-0.164 0.879,-0.313 0.879,-0.473 0.879,-0.289 0.875,-0.293 0.879,-0.246 0.879,-0.379 0.879,-0.25 0.879,-0.511 0.879,-0.2 0.879,-0.23 0.879,-0.141 0.878,-0.511 0.875,-0.442 0.879,-0.035 0.879,-0.094 0.879,0.012 0.879,-0.195 0.879,0.238 0.879,-0.234 0.879,-0.895 0.875,0.047 0.879,-0.012 0.879,-0.219 0.879,-0.183 0.878,0.18 0.879,-0.321 0.879,0.059 0.879,-0.324 0.879,0.328" /><path
         inkscape:connector-curvature="0"
         id="path3102"
         style="fill:none;stroke:#0000ff;stroke-width:1.47639596000000006;stroke-linecap:butt;stroke-linejoin:round;stroke-miterlimit:10;stroke-opacity:1;stroke-dasharray:none"
         d="m 141.453,311.41984 0.879,0.328 0.875,-0.719 0.879,0.645 0.879,-0.161 0.879,0.204 0.879,0.703 0.879,-0.977 0.878,0.332 0.879,0.231 0.875,0.238 0.879,-0.082 0.879,0.265 0.879,-0.546 0.879,0.546 0.879,0.043 1.758,0.782 0.879,-0.203 0.875,0.308 0.879,0.422 0.878,0.027 0.879,0.059 0.879,0.734 0.879,-0.035 0.879,0.637 0.879,0.363 0.875,0.133 0.879,0.32 0.879,0.231 0.879,0.226 0.879,0.5 0.878,0.411 0.879,0.57 0.879,0.328 0.879,0.258 0.875,0.902 0.879,-0.043 0.879,0.649 0.879,0.156 0.879,0.902 0.879,0.406 0.879,-0.105 0.879,0.664 0.875,0.738 0.878,-0.07 0.879,0.809 0.879,0.695 0.879,0.141 0.879,0.621 0.879,0.605 0.879,0.227" /><path
         inkscape:connector-curvature="0"
         id="path3106"
         style="fill:none;stroke:#0000ff;stroke-width:1.47639596000000006;stroke-linecap:butt;stroke-linejoin:round;stroke-miterlimit:10;stroke-opacity:1;stroke-dasharray:none"
         d="m 185.375,325.61084 0.879,0.227 0.879,0.433 0.875,0.723 0.879,0.348 0.879,0.566 0.879,0.445 0.878,0.485 0.879,0.589 0.879,0.446 0.879,0.082 0.875,0.633 0.879,0.394 0.879,0.379 0.879,0.738 0.879,-0.039 0.879,0.352 0.879,0.566 0.879,0.285 0.874,0.504 0.879,0.172 0.879,0.164 0.879,0.406 0.879,-0.027 0.879,0.453 0.879,-0.238 0.879,0.016 0.879,0.082 0.875,0.172 0.879,-0.024 0.879,-0.656 0.878,-0.176 0.879,-0.262 0.879,-0.601 0.879,-0.321 0.879,-0.769 0.875,-0.793 0.879,-1.277 0.879,-0.215 0.879,-0.969 0.879,-0.664 0.879,-1.141 0.879,-1.238 0.878,-0.363 0.879,-1.309 0.875,-1 0.879,-0.816 0.879,-1.238 0.879,-0.75 0.879,-0.922 0.879,-0.743 0.879,-0.644" /><path
         inkscape:connector-curvature="0"
         id="path3110"
         style="fill:none;stroke:#0000ff;stroke-width:1.47639596000000006;stroke-linecap:butt;stroke-linejoin:round;stroke-miterlimit:10;stroke-opacity:1;stroke-dasharray:none"
         d="m 229.297,318.71984 0.879,-0.644 0.879,-0.582 0.875,-0.555 0.879,-0.094 0.879,-0.074 0.878,-0.316 0.879,0.168 0.879,-0.02 0.879,0.086 0.879,0.238 0.879,0.45 0.875,1.054 0.879,0.75 0.879,1.301 0.879,0.809 0.879,0.863 0.878,1.516 0.879,1.222 0.879,1.285 0.875,1.313 0.879,1.359 0.879,1.164 0.879,1.489 0.879,0.722 0.879,1.606 0.879,1.086 0.879,0.668 0.879,0.386 0.875,0.696 0.878,1.285 0.879,0.449 0.879,-0.07 0.879,0.168 0.879,0.351 0.879,-0.121 0.879,-0.59 0.875,0.192 0.879,-0.574 0.879,-0.422 0.879,-0.492 0.878,-0.852 0.879,-0.68 0.879,-0.82 0.879,-1.035 0.879,-0.727 0.875,-0.711 0.879,-1.082 0.879,-0.648 0.879,-1.043 0.879,-0.988 0.879,-0.676" /><path
         inkscape:connector-curvature="0"
         id="path3114"
         style="fill:none;stroke:#0000ff;stroke-width:1.47639596000000006;stroke-linecap:butt;stroke-linejoin:round;stroke-miterlimit:10;stroke-opacity:1;stroke-dasharray:none"
         d="m 273.219,328.25584 0.879,-0.676 0.879,-0.949 0.878,-0.407 0.875,-0.386 0.879,-0.821 0.879,-0.761 0.879,-0.032 0.879,-0.277 0.879,-0.574 0.879,0.176 0.879,-0.211 0.879,0.562 0.875,-0.406 0.879,0.437 0.879,0.356 0.878,0.637 0.879,0.183 0.879,0.672 0.879,0.406 0.879,0.793 0.875,0.614 0.879,0.617 0.879,0.566 0.879,1.086 0.879,0.633 0.879,0.488 0.879,1.016 0.878,0.699 0.879,1.035 0.875,0.567 0.879,1.289 0.879,0.621 0.879,0.566 0.879,1.11 0.879,0.417 0.879,1.071 0.879,0.465 0.875,0.839 0.879,0.219 0.878,0.242 0.879,0.641 0.879,0.215 0.879,0 0.879,0.504 0.879,0.117 0.875,-0.207 0.879,-0.059 0.879,0.203 0.879,-0.066 0.879,-0.168 0.879,-0.199" /><path
         inkscape:connector-curvature="0"
         id="path3118"
         style="fill:none;stroke:#0000ff;stroke-width:1.47639596000000006;stroke-linecap:butt;stroke-linejoin:round;stroke-miterlimit:10;stroke-opacity:1;stroke-dasharray:none"
         d="m 317.141,342.31784 0.879,-0.199 0.878,0.226 0.879,-0.156 0.879,-0.648 0.875,0.429 0.879,-0.468 0.879,-0.059 0.879,-0.215 0.879,-0.25 0.879,-0.785 0.879,-0.105 0.879,0.031 0.875,-0.012 0.879,-0.887 0.878,0.098 0.879,0.039 0.879,0.012 0.879,-0.969 0.879,0.344 0.879,-0.356 0.879,-0.492 0.875,-0.281 0.879,-0.109 0.879,0.445 0.879,-1.149 0.878,0.047 0.879,0.442 0.879,0.004 0.879,-0.254 0.875,0.199 0.879,-0.035 0.879,-0.102 0.879,-0.207 0.879,0.25 0.879,-0.066 0.879,-0.153 0.879,0.176 0.878,0.438 0.875,-0.297 0.879,0.449 0.879,-0.336 0.879,0.52 0.879,0.011 0.879,0.079 0.879,0.378 0.879,0.36 0.875,0.125 0.879,0.258 0.879,0.328 0.878,0.316 0.879,0.344" /><path
         inkscape:connector-curvature="0"
         id="path3122"
         style="fill:none;stroke:#0000ff;stroke-width:1.47639596000000006;stroke-linecap:butt;stroke-linejoin:round;stroke-miterlimit:10;stroke-opacity:1;stroke-dasharray:none"
         d="m 361.062,339.73184 0.879,0.344 0.879,-0.035 0.879,0.125 0.879,0.144 0.879,0.254 0.875,-0.121 0.879,-0.09 0.879,0.172 0.879,0.152 0.879,-0.222 0.879,-0.133 0.878,0.352 0.879,-0.297 0.875,-0.063 0.879,-0.387 0.879,0.157 0.879,-0.098 0.879,-0.148 0.879,-0.258 0.879,-0.485 0.879,0 0.879,-0.445 0.875,0.035 0.879,-0.402 0.878,0.184 0.879,-0.582 0.879,-0.059" /></g><path
       inkscape:connector-curvature="0"
       id="path3124"
       style="fill:#ffffff;fill-opacity:1;fill-rule:nonzero;stroke:none"
       d="m 55.363,278.482 329.418,0 0,-50.383 -329.418,0 0,50.383 z" /><path
       d="m 55.363,228.09884 329.418,0"
       style="fill:none;stroke:#262626;stroke-width:0.369113;stroke-linecap:square;stroke-linejoin:round;stroke-miterlimit:10;stroke-opacity:1;stroke-dasharray:none"
       id="path3128"
       inkscape:connector-curvature="0" /><path
       d="m 55.363,278.48184 329.418,0"
       style="fill:none;stroke:#262626;stroke-width:0.369113;stroke-linecap:square;stroke-linejoin:round;stroke-miterlimit:10;stroke-opacity:1;stroke-dasharray:none"
       id="path3132"
       inkscape:connector-curvature="0" /><path
       d="m 384.781,228.09884 0,50.383"
       style="fill:none;stroke:#262626;stroke-width:0.369113;stroke-linecap:square;stroke-linejoin:round;stroke-miterlimit:10;stroke-opacity:1;stroke-dasharray:none"
       id="path3136"
       inkscape:connector-curvature="0" /><path
       d="m 55.363,228.09884 0,50.383"
       style="fill:none;stroke:#262626;stroke-width:0.369113;stroke-linecap:square;stroke-linejoin:round;stroke-miterlimit:10;stroke-opacity:1;stroke-dasharray:none"
       id="path3140"
       inkscape:connector-curvature="0" /><path
       d="m 384.781,228.09884 -3.293,0"
       style="fill:none;stroke:#262626;stroke-width:0.369113;stroke-linecap:square;stroke-linejoin:round;stroke-miterlimit:10;stroke-opacity:1;stroke-dasharray:none"
       id="path3144"
       inkscape:connector-curvature="0" /><path
       d="m 384.781,253.29084 -3.293,0"
       style="fill:none;stroke:#262626;stroke-width:0.369113;stroke-linecap:square;stroke-linejoin:round;stroke-miterlimit:10;stroke-opacity:1;stroke-dasharray:none"
       id="path3148"
       inkscape:connector-curvature="0" /><path
       d="m 384.781,278.48184 -3.293,0"
       style="fill:none;stroke:#262626;stroke-width:0.369113;stroke-linecap:square;stroke-linejoin:round;stroke-miterlimit:10;stroke-opacity:1;stroke-dasharray:none"
       id="path3152"
       inkscape:connector-curvature="0" /><path
       d="m 55.363,228.09884 3.297,0"
       style="fill:none;stroke:#262626;stroke-width:0.369113;stroke-linecap:square;stroke-linejoin:round;stroke-miterlimit:10;stroke-opacity:1;stroke-dasharray:none"
       id="path3156"
       inkscape:connector-curvature="0" /><path
       d="m 55.363,253.29084 3.297,0"
       style="fill:none;stroke:#262626;stroke-width:0.369113;stroke-linecap:square;stroke-linejoin:round;stroke-miterlimit:10;stroke-opacity:1;stroke-dasharray:none"
       id="path3160"
       inkscape:connector-curvature="0" /><path
       d="m 55.363,278.48184 3.297,0"
       style="fill:none;stroke:#262626;stroke-width:0.369113;stroke-linecap:square;stroke-linejoin:round;stroke-miterlimit:10;stroke-opacity:1;stroke-dasharray:none"
       id="path3164"
       inkscape:connector-curvature="0" /><text
       id="text3166"
       transform="scale(1,-1)"
       x="388.02902"
       y="-225.05536"><tspan
         id="tspan3168"
         y="-225.05536"
         x="388.02902"
         style="font-size:8.85826683px;font-variant:normal;font-weight:normal;writing-mode:lr-tb;fill:#262626;fill-opacity:1;fill-rule:nonzero;stroke:none;font-family:DejaVu Sans;-inkscape-font-specification:DejaVuSans">0</tspan><tspan
         id="tspan3170"
         sodipodi:role="line"
         y="-250.24606"
         x="388.02902 393.6629 396.47095"
         style="font-size:8.85826683px;font-variant:normal;font-weight:normal;writing-mode:lr-tb;fill:#262626;fill-opacity:1;fill-rule:nonzero;stroke:none;font-family:DejaVu Sans;-inkscape-font-specification:DejaVuSans">0.2</tspan><tspan
         id="tspan3172"
         sodipodi:role="line"
         y="-275.43677"
         x="388.02902 393.6629 396.47095"
         style="font-size:8.85826683px;font-variant:normal;font-weight:normal;writing-mode:lr-tb;fill:#262626;fill-opacity:1;fill-rule:nonzero;stroke:none;font-family:DejaVu Sans;-inkscape-font-specification:DejaVuSans">0.4</tspan></text>
<g
       id="g9109"
       style="stroke:#000080"><path
         inkscape:connector-curvature="0"
         id="path3176"
         style="fill:none;stroke:#000080;stroke-width:1.47639596000000006;stroke-linecap:butt;stroke-linejoin:round;stroke-miterlimit:10;stroke-opacity:1;stroke-dasharray:none"
         d="m 74.691,268.92384 0.879,-0.379 0.875,-0.387 0.879,-0.395 0.879,-0.406 0.879,-0.414 0.879,-0.418 0.879,-0.43 0.879,-0.433 0.879,-0.438 0.875,-0.445 0.879,-0.449 1.757,-0.914 0.879,-0.461 1.758,-0.93 1.758,-0.937 0.875,-0.473 1.758,-0.945 2.636,-1.43 0.879,-0.473 0.879,-0.476 0.875,-0.473 0.879,-0.469 0.879,-0.464 0.879,-0.461 0.879,-0.457 1.758,-0.907 0.879,-0.445 0.875,-0.438 0.878,-0.437 0.879,-0.43 0.879,-0.425 0.879,-0.418 0.879,-0.415 0.879,-0.406 0.879,-0.398 0.879,-0.395 0.875,-0.386 0.879,-0.379 0.879,-0.371 0.879,-0.368 0.878,-0.359 0.879,-0.352" /><path
         inkscape:connector-curvature="0"
         id="path3180"
         style="fill:none;stroke:#000080;stroke-width:1.47639596000000006;stroke-linecap:butt;stroke-linejoin:round;stroke-miterlimit:10;stroke-opacity:1;stroke-dasharray:none"
         d="m 116.855,247.98984 0.879,-0.352 0.879,-0.343 0.879,-0.336 0.875,-0.328 0.879,-0.321 0.879,-0.308 0.879,-0.305 0.879,-0.289 0.879,-0.277 0.879,-0.27 0.879,-0.254 0.878,-0.238 0.875,-0.227 0.879,-0.211 0.879,-0.199 0.879,-0.191 0.879,-0.18 0.879,-0.172 0.879,-0.16 0.879,-0.156 0.875,-0.145 0.879,-0.136 0.879,-0.125 0.879,-0.114 0.878,-0.097 0.879,-0.082 0.879,-0.067 0.879,-0.047 0.879,-0.031 0.875,-0.016 0.879,0.004 0.879,0.02 0.879,0.031 0.879,0.047 0.879,0.055 0.878,0.07 0.879,0.078 0.875,0.09 0.879,0.101 0.879,0.114 0.879,0.129 0.879,0.14 0.879,0.153 0.879,0.172 0.879,0.187 0.879,0.199 0.875,0.219 0.879,0.23 0.878,0.247 0.879,0.257 0.879,0.274" /><path
         inkscape:connector-curvature="0"
         id="path3184"
         style="fill:#000080;stroke:#000080;stroke-width:1.47639596000000006;stroke-linecap:butt;stroke-linejoin:round;stroke-miterlimit:10;stroke-opacity:1;stroke-dasharray:none"
         d="m 160.777,244.55584 0.879,0.274 0.879,0.285 0.879,0.297 0.879,0.308 0.875,0.321 0.879,0.332 0.879,0.344 0.879,0.355 0.879,0.367 0.878,0.379 0.879,0.387 0.879,0.398 0.879,0.406 0.875,0.415 1.758,0.843 1.758,0.868 0.879,0.437 0.879,0.441 0.879,0.45 0.875,0.453 0.878,0.457 0.879,0.461 0.879,0.465 1.758,0.937 2.637,1.418 0.875,0.473 0.879,0.468 0.879,0.465 0.879,0.461 0.878,0.453 0.879,0.45 0.879,0.437 0.879,0.43 0.875,0.418 0.879,0.406 0.879,0.394 0.879,0.383 0.879,0.367 0.879,0.348 0.879,0.324 0.879,0.305 0.874,0.277 0.879,0.25 0.879,0.215 0.879,0.18 0.879,0.137" /><path
         inkscape:connector-curvature="0"
         id="path3188"
         style="fill:none;stroke:#000080;stroke-width:1.47639596000000006;stroke-linecap:butt;stroke-linejoin:round;stroke-miterlimit:10;stroke-opacity:1;stroke-dasharray:none"
         d="m 204.699,264.15784 0.879,0.137 0.879,0.093 0.879,0.047 0.879,-0.008 0.879,-0.066 0.875,-0.121 0.879,-0.188 0.879,-0.253 0.878,-0.317 0.879,-0.387 0.879,-0.453 0.879,-0.515 0.879,-0.578 0.875,-0.637 0.879,-0.688 0.879,-0.734 0.879,-0.77 0.879,-0.808 0.879,-0.832 0.879,-0.848 1.757,-1.711 0.875,-0.844 0.879,-0.82 0.879,-0.789 0.879,-0.746 0.879,-0.687 0.879,-0.626 0.879,-0.55 0.879,-0.465 0.875,-0.379 0.879,-0.277 0.879,-0.176 0.878,-0.067 0.879,0.043 0.879,0.157 0.879,0.269 0.879,0.387 0.879,0.5 0.875,0.605 0.879,0.711 0.879,0.805 0.879,0.891 0.879,0.957 0.878,1.019 0.879,1.063 0.879,1.09 0.875,1.105 0.879,1.105 0.879,1.086 0.879,1.055" /><path
         inkscape:connector-curvature="0"
         id="path3192"
         style="fill:none;stroke:#000080;stroke-width:1.47639596000000006;stroke-linecap:butt;stroke-linejoin:round;stroke-miterlimit:10;stroke-opacity:1;stroke-dasharray:none"
         d="m 248.621,259.88784 0.879,1.055 0.879,1.012 0.879,0.957 0.879,0.887 0.879,0.808 0.879,0.719 0.875,0.629 0.878,0.527 0.879,0.422 0.879,0.313 0.879,0.207 0.879,0.097 0.879,-0.008 0.879,-0.113 0.875,-0.211 0.879,-0.304 0.879,-0.395 0.879,-0.473 0.878,-0.547 0.879,-0.605 0.879,-0.656 0.879,-0.696 0.879,-0.73 0.875,-0.746 1.758,-1.508 0.879,-0.738 0.879,-0.719 0.879,-0.684 0.879,-0.648 0.878,-0.598 0.875,-0.543 0.879,-0.48 0.879,-0.414 0.879,-0.34 0.879,-0.27 0.879,-0.187 0.879,-0.109 0.879,-0.036 0.879,0.051 0.875,0.121 0.879,0.2 0.879,0.265 0.878,0.332 0.879,0.395 0.879,0.453 0.879,0.5 0.879,0.547 0.875,0.593 0.879,0.625 0.879,0.661" /><path
         inkscape:connector-curvature="0"
         id="path3196"
         style="fill:none;stroke:#000080;stroke-width:1.47639596000000006;stroke-linecap:butt;stroke-linejoin:round;stroke-miterlimit:10;stroke-opacity:1;stroke-dasharray:none"
         d="m 292.543,258.84484 0.879,0.661 0.879,0.687 0.879,0.715 0.879,0.73 0.879,0.747 0.878,0.757 0.879,0.762 0.875,0.762 0.879,0.75 0.879,0.738 0.879,0.719 0.879,0.691 0.879,0.656 0.879,0.618 0.879,0.57 0.875,0.523 0.879,0.473 0.878,0.418 0.879,0.363 0.879,0.309 0.879,0.258 0.879,0.207 0.879,0.156 0.875,0.113 0.879,0.071 0.879,0.035 0.879,-0.004 0.879,-0.031 0.879,-0.063 0.878,-0.09 0.879,-0.113 0.879,-0.133 0.875,-0.152 0.879,-0.172 0.879,-0.184 0.879,-0.199 0.879,-0.207 0.879,-0.215 0.879,-0.222 0.879,-0.219 0.875,-0.227 0.879,-0.222 2.636,-0.657 0.879,-0.211 0.879,-0.203 0.879,-0.199 0.879,-0.187 0.875,-0.172 0.879,-0.16" /><path
         inkscape:connector-curvature="0"
         id="path3200"
         style="fill:none;stroke:#000080;stroke-width:1.47639596000000006;stroke-linecap:butt;stroke-linejoin:round;stroke-miterlimit:10;stroke-opacity:1;stroke-dasharray:none"
         d="m 336.465,268.25184 0.879,-0.16 0.879,-0.141 0.879,-0.125 0.878,-0.106 0.879,-0.085 0.879,-0.071 0.879,-0.051 0.875,-0.035 0.879,-0.023 0.879,-0.004 0.879,0.008 0.879,0.019 0.879,0.039 0.879,0.051 0.879,0.067 0.878,0.082 0.875,0.101 0.879,0.117 0.879,0.133 0.879,0.149 0.879,0.164 0.879,0.175 0.879,0.188 0.879,0.191 0.875,0.196 0.879,0.195 0.879,0.191 0.878,0.184 0.879,0.168 0.879,0.152 0.879,0.137 0.879,0.117 0.879,0.094" /></g><path
       inkscape:connector-curvature="0"
       id="path3202"
       style="fill:#ffffff;fill-opacity:1;fill-rule:nonzero;stroke:none"
       d="m 55.363,208.169 329.418,0 0,-49.828 -329.418,0 0,49.828 z" /><path
       d="m 55.363,158.34184 329.418,0"
       style="fill:none;stroke:#262626;stroke-width:0.369113;stroke-linecap:square;stroke-linejoin:round;stroke-miterlimit:10;stroke-opacity:1;stroke-dasharray:none"
       id="path3206"
       inkscape:connector-curvature="0" /><path
       d="m 55.363,208.16984 329.418,0"
       style="fill:none;stroke:#262626;stroke-width:0.369113;stroke-linecap:square;stroke-linejoin:round;stroke-miterlimit:10;stroke-opacity:1;stroke-dasharray:none"
       id="path3210"
       inkscape:connector-curvature="0" /><path
       d="m 384.781,158.34184 0,49.828"
       style="fill:none;stroke:#262626;stroke-width:0.369113;stroke-linecap:square;stroke-linejoin:round;stroke-miterlimit:10;stroke-opacity:1;stroke-dasharray:none"
       id="path3214"
       inkscape:connector-curvature="0" /><path
       d="m 55.363,158.34184 0,49.828"
       style="fill:none;stroke:#262626;stroke-width:0.369113;stroke-linecap:square;stroke-linejoin:round;stroke-miterlimit:10;stroke-opacity:1;stroke-dasharray:none"
       id="path3218"
       inkscape:connector-curvature="0" /><path
       d="m 384.781,158.34184 -3.293,0"
       style="fill:none;stroke:#262626;stroke-width:0.369113;stroke-linecap:square;stroke-linejoin:round;stroke-miterlimit:10;stroke-opacity:1;stroke-dasharray:none"
       id="path3222"
       inkscape:connector-curvature="0" /><path
       d="m 384.781,183.25584 -3.293,0"
       style="fill:none;stroke:#262626;stroke-width:0.369113;stroke-linecap:square;stroke-linejoin:round;stroke-miterlimit:10;stroke-opacity:1;stroke-dasharray:none"
       id="path3226"
       inkscape:connector-curvature="0" /><path
       d="m 384.781,208.16984 -3.293,0"
       style="fill:none;stroke:#262626;stroke-width:0.369113;stroke-linecap:square;stroke-linejoin:round;stroke-miterlimit:10;stroke-opacity:1;stroke-dasharray:none"
       id="path3230"
       inkscape:connector-curvature="0" /><path
       d="m 55.363,158.34184 3.297,0"
       style="fill:none;stroke:#262626;stroke-width:0.369113;stroke-linecap:square;stroke-linejoin:round;stroke-miterlimit:10;stroke-opacity:1;stroke-dasharray:none"
       id="path3234"
       inkscape:connector-curvature="0" /><path
       d="m 55.363,183.25584 3.297,0"
       style="fill:none;stroke:#262626;stroke-width:0.369113;stroke-linecap:square;stroke-linejoin:round;stroke-miterlimit:10;stroke-opacity:1;stroke-dasharray:none"
       id="path3238"
       inkscape:connector-curvature="0" /><path
       d="m 55.363,208.16984 3.297,0"
       style="fill:none;stroke:#262626;stroke-width:0.369113;stroke-linecap:square;stroke-linejoin:round;stroke-miterlimit:10;stroke-opacity:1;stroke-dasharray:none"
       id="path3242"
       inkscape:connector-curvature="0" /><text
       id="text3244"
       transform="scale(1,-1)"
       x="388.02902"
       y="-155.29651"><tspan
         id="tspan3246"
         sodipodi:role="line"
         y="-155.29651"
         x="388.02902 391.21802 396.85187 399.65994"
         style="font-size:8.85826683px;font-variant:normal;font-weight:normal;writing-mode:lr-tb;fill:#262626;fill-opacity:1;fill-rule:nonzero;stroke:none;font-family:DejaVu Sans;-inkscape-font-specification:DejaVuSans">-0.5</tspan><tspan
         id="tspan3248"
         y="-180.21039"
         x="388.02902"
         style="font-size:8.85826683px;font-variant:normal;font-weight:normal;writing-mode:lr-tb;fill:#262626;fill-opacity:1;fill-rule:nonzero;stroke:none;font-family:DejaVu Sans;-inkscape-font-specification:DejaVuSans">0</tspan><tspan
         id="tspan3250"
         sodipodi:role="line"
         y="-205.12427"
         x="388.02902 393.6629 396.47095"
         style="font-size:8.85826683px;font-variant:normal;font-weight:normal;writing-mode:lr-tb;fill:#262626;fill-opacity:1;fill-rule:nonzero;stroke:none;font-family:DejaVu Sans;-inkscape-font-specification:DejaVuSans">0.5</tspan></text>
<g
       id="g9128"
       style="fill:none;stroke:#000080"><path
         inkscape:connector-curvature="0"
         id="path3254"
         style="fill:none;stroke:#000080;stroke-width:1.47639596000000006;stroke-linecap:butt;stroke-linejoin:round;stroke-miterlimit:10;stroke-opacity:1;stroke-dasharray:none"
         d="m 74.691,179.55584 0.879,-0.089 0.875,-0.09 1.758,-0.164 0.879,-0.078 1.758,-0.141 1.758,-0.117 0.875,-0.051 0.879,-0.043 0.878,-0.039 0.879,-0.031 1.758,-0.055 2.637,-0.059 0.875,-0.015 0.879,-0.016 0.879,-0.012 0.879,-0.007 0.879,-0.004 0.878,0.004 0.879,0.011 0.879,0.02 0.875,0.023 0.879,0.032 1.758,0.07 0.879,0.039 2.637,0.129 0.875,0.047 0.878,0.05 0.879,0.055 1.758,0.117 1.758,0.125 1.758,0.133 0.875,0.067 0.879,0.066 2.636,0.211 0.879,0.074" /><path
         inkscape:connector-curvature="0"
         id="path3258"
         style="fill:none;stroke:#000080;stroke-width:1.47639596000000006;stroke-linecap:butt;stroke-linejoin:round;stroke-miterlimit:10;stroke-opacity:1;stroke-dasharray:none"
         d="m 116.855,179.74384 1.758,0.148 0.879,0.078 0.875,0.079 0.879,0.086 0.879,0.089 0.879,0.102 0.879,0.109 0.879,0.117 0.879,0.129 1.757,0.274 0.875,0.133 0.879,0.129 0.879,0.113 0.879,0.101 0.879,0.094 0.879,0.082 0.879,0.078 0.879,0.082 0.875,0.09 0.879,0.106 0.879,0.117 0.879,0.133 0.878,0.148 0.879,0.16 0.879,0.168 0.879,0.176 0.879,0.172 0.875,0.168 0.879,0.156 0.879,0.148 0.879,0.133 0.879,0.121 0.879,0.114 0.878,0.109 0.879,0.106 0.875,0.109 0.879,0.117 0.879,0.125 0.879,0.133 1.758,0.289 2.637,0.457 0.875,0.148 0.879,0.145 0.878,0.137 0.879,0.133 0.879,0.128" /><path
         inkscape:connector-curvature="0"
         id="path3262"
         style="fill:none;stroke:#000080;stroke-width:1.47639596000000006;stroke-linecap:butt;stroke-linejoin:round;stroke-miterlimit:10;stroke-opacity:1;stroke-dasharray:none"
         d="m 160.777,185.88484 0.879,0.128 0.879,0.122 1.758,0.234 0.875,0.113 1.758,0.235 1.758,0.226 0.878,0.106 0.879,0.097 0.879,0.09 0.879,0.074 0.875,0.067 0.879,0.058 1.758,0.094 2.637,0.129 0.879,0.047 0.875,0.047 1.757,0.086 0.879,0.035 0.879,0.027 0.879,0.024 0.879,0.011 0.879,0 0.879,-0.008 0.875,-0.019 0.879,-0.031 0.879,-0.043 0.879,-0.055 0.878,-0.066 0.879,-0.078 0.879,-0.086 0.879,-0.098 0.875,-0.109 0.879,-0.118 0.879,-0.129 0.879,-0.144 0.879,-0.164 0.879,-0.188 0.879,-0.214 0.879,-0.243 0.874,-0.273 0.879,-0.313 0.879,-0.343 0.879,-0.383 0.879,-0.422" /><path
         inkscape:connector-curvature="0"
         id="path3266"
         style="fill:none;stroke:#000080;stroke-width:1.47639596000000006;stroke-linecap:butt;stroke-linejoin:round;stroke-miterlimit:10;stroke-opacity:1;stroke-dasharray:none"
         d="m 204.699,184.82984 0.879,-0.422 0.879,-0.461 0.879,-0.5 0.879,-0.539 0.879,-0.578 0.875,-0.606 0.879,-0.636 0.879,-0.657 0.878,-0.664 0.879,-0.66 0.879,-0.648 0.879,-0.625 0.879,-0.586 0.875,-0.539 0.879,-0.489 0.879,-0.425 0.879,-0.36 0.879,-0.289 0.879,-0.211 0.879,-0.125 0.878,-0.035 0.879,0.059 0.875,0.164 0.879,0.273 0.879,0.383 0.879,0.492 0.879,0.594 0.879,0.695 0.879,0.782 0.879,0.863 0.875,0.929 0.879,0.993 0.879,1.039 0.878,1.082 0.879,1.113 1.758,2.273 0.879,1.129 0.879,1.102 0.875,1.047 0.879,0.972 0.879,0.883 0.879,0.774 0.879,0.644 0.878,0.508 0.879,0.363 0.879,0.215 0.875,0.059 0.879,-0.09 0.879,-0.234 0.879,-0.375" /><path
         inkscape:connector-curvature="0"
         id="path3270"
         style="fill:none;stroke:#000080;stroke-width:1.47639596000000006;stroke-linecap:butt;stroke-linejoin:round;stroke-miterlimit:10;stroke-opacity:1;stroke-dasharray:none"
         d="m 248.621,193.88084 0.879,-0.375 0.879,-0.504 0.879,-0.625 0.879,-0.727 0.879,-0.82 0.879,-0.899 0.875,-0.961 0.878,-1.015 0.879,-1.047 0.879,-1.07 0.879,-1.079 0.879,-1.066 0.879,-1.047 0.879,-1.008 0.875,-0.961 0.879,-0.898 0.879,-0.824 0.879,-0.746 0.878,-0.653 0.879,-0.558 0.879,-0.457 0.879,-0.352 0.879,-0.242 0.875,-0.133 0.879,-0.031 0.879,0.074 0.879,0.172 0.879,0.27 0.879,0.355 0.879,0.438 0.878,0.515 0.875,0.578 0.879,0.637 0.879,0.687 0.879,0.727 0.879,0.758 0.879,0.777 1.758,1.563 0.879,0.769 0.875,0.742 0.879,0.715 0.879,0.672 0.878,0.629 0.879,0.582 0.879,0.531 0.879,0.485 0.879,0.433 0.875,0.391 0.879,0.348 0.879,0.3" /><path
         inkscape:connector-curvature="0"
         id="path3274"
         style="fill:none;stroke:#000080;stroke-width:1.47639596000000006;stroke-linecap:butt;stroke-linejoin:round;stroke-miterlimit:10;stroke-opacity:1;stroke-dasharray:none"
         d="m 292.543,189.63084 0.879,0.3 0.879,0.258 0.879,0.219 0.879,0.172 0.879,0.121 0.878,0.074 0.879,0.016 0.875,-0.043 0.879,-0.11 0.879,-0.171 0.879,-0.239 0.879,-0.304 0.879,-0.364 0.879,-0.418 0.879,-0.461 0.875,-0.5 0.879,-0.523 0.878,-0.535 0.879,-0.539 0.879,-0.532 0.879,-0.515 0.879,-0.488 0.879,-0.461 0.875,-0.43 0.879,-0.395 0.879,-0.359 0.879,-0.324 0.879,-0.301 0.879,-0.27 0.878,-0.25 0.879,-0.222 0.879,-0.207 0.875,-0.184 0.879,-0.16 0.879,-0.133 0.879,-0.109 0.879,-0.082 0.879,-0.059 0.879,-0.035 0.879,-0.016 0.875,-0.003 0.879,0.011 0.878,0.016 0.879,0.027 0.879,0.035 0.879,0.051 0.879,0.07 0.879,0.09 0.879,0.114 0.875,0.14 0.879,0.16" /><path
         inkscape:connector-curvature="0"
         id="path3278"
         style="fill:none;stroke:#000080;stroke-width:1.47639596000000006;stroke-linecap:butt;stroke-linejoin:round;stroke-miterlimit:10;stroke-opacity:1;stroke-dasharray:none"
         d="m 336.465,181.60284 0.879,0.16 0.879,0.172 0.879,0.184 0.878,0.187 0.879,0.184 0.879,0.172 0.879,0.164 0.875,0.152 0.879,0.145 0.879,0.14 0.879,0.137 1.758,0.289 0.879,0.153 1.757,0.32 0.875,0.168 0.879,0.164 0.879,0.156 0.879,0.152 0.879,0.133 0.879,0.114 0.879,0.086 0.879,0.054 0.875,0.012 0.879,-0.027 0.879,-0.071 0.878,-0.105 0.879,-0.141 0.879,-0.168 0.879,-0.187 0.879,-0.203 0.879,-0.211" /></g><path
       inkscape:connector-curvature="0"
       id="path3280"
       style="fill:#ffffff;fill-opacity:1;fill-rule:nonzero;stroke:none"
       d="m 55.363,138.412 329.418,0 0,-50.383 -329.418,0 0,50.383 z" /><path
       d="m 55.363,88.02884 329.418,0"
       style="fill:none;stroke:#262626;stroke-width:0.369113;stroke-linecap:square;stroke-linejoin:round;stroke-miterlimit:10;stroke-opacity:1;stroke-dasharray:none"
       id="path3284"
       inkscape:connector-curvature="0" /><path
       d="m 55.363,138.41184 329.418,0"
       style="fill:none;stroke:#262626;stroke-width:0.369113;stroke-linecap:square;stroke-linejoin:round;stroke-miterlimit:10;stroke-opacity:1;stroke-dasharray:none"
       id="path3288"
       inkscape:connector-curvature="0" /><path
       d="m 55.363,88.02884 0,3.293"
       style="fill:none;stroke:#262626;stroke-width:0.369113;stroke-linecap:square;stroke-linejoin:round;stroke-miterlimit:10;stroke-opacity:1;stroke-dasharray:none"
       id="path3292"
       inkscape:connector-curvature="0" /><path
       d="m 165.168,88.02884 0,3.293"
       style="fill:none;stroke:#262626;stroke-width:0.369113;stroke-linecap:square;stroke-linejoin:round;stroke-miterlimit:10;stroke-opacity:1;stroke-dasharray:none"
       id="path3296"
       inkscape:connector-curvature="0" /><path
       d="m 274.977,88.02884 0,3.293"
       style="fill:none;stroke:#262626;stroke-width:0.369113;stroke-linecap:square;stroke-linejoin:round;stroke-miterlimit:10;stroke-opacity:1;stroke-dasharray:none"
       id="path3300"
       inkscape:connector-curvature="0" /><path
       d="m 384.781,88.02884 0,3.293"
       style="fill:none;stroke:#262626;stroke-width:0.369113;stroke-linecap:square;stroke-linejoin:round;stroke-miterlimit:10;stroke-opacity:1;stroke-dasharray:none"
       id="path3304"
       inkscape:connector-curvature="0" /><path
       d="m 55.363,138.41184 0,-3.297"
       style="fill:none;stroke:#262626;stroke-width:0.369113;stroke-linecap:square;stroke-linejoin:round;stroke-miterlimit:10;stroke-opacity:1;stroke-dasharray:none"
       id="path3308"
       inkscape:connector-curvature="0" /><path
       d="m 165.168,138.41184 0,-3.297"
       style="fill:none;stroke:#262626;stroke-width:0.369113;stroke-linecap:square;stroke-linejoin:round;stroke-miterlimit:10;stroke-opacity:1;stroke-dasharray:none"
       id="path3312"
       inkscape:connector-curvature="0" /><path
       d="m 274.977,138.41184 0,-3.297"
       style="fill:none;stroke:#262626;stroke-width:0.369113;stroke-linecap:square;stroke-linejoin:round;stroke-miterlimit:10;stroke-opacity:1;stroke-dasharray:none"
       id="path3316"
       inkscape:connector-curvature="0" /><path
       d="m 384.781,138.41184 0,-3.297"
       style="fill:none;stroke:#262626;stroke-width:0.369113;stroke-linecap:square;stroke-linejoin:round;stroke-miterlimit:10;stroke-opacity:1;stroke-dasharray:none"
       id="path3320"
       inkscape:connector-curvature="0" /><text
       y="-72.541649"
       x="59.066746"
       id="text3322"
       transform="scale(0.98272709,-1.0175765)"
       style="font-size:11.79272461px"><tspan
         id="tspan3324"
         sodipodi:role="line"
         y="-72.541649"
         x="59.066746 157.45428 162.99083 165.75038 171.28693 176.82346 268.07196 273.60852 276.36807 281.90463 373.27216 378.80872 381.56827 387.1048 392.64136"
         style="font-size:8.70525837px;font-variant:normal;font-weight:normal;writing-mode:lr-tb;fill:#262626;fill-opacity:1;fill-rule:nonzero;stroke:none;font-family:DejaVu Sans;-inkscape-font-specification:DejaVuSans">00.0050.010.015</tspan></text>
<path
       d="m 384.781,88.02884 0,50.383"
       style="fill:none;stroke:#262626;stroke-width:0.369113;stroke-linecap:square;stroke-linejoin:round;stroke-miterlimit:10;stroke-opacity:1;stroke-dasharray:none"
       id="path3328"
       inkscape:connector-curvature="0" /><path
       d="m 55.363,88.02884 0,50.383"
       style="fill:none;stroke:#262626;stroke-width:0.369113;stroke-linecap:square;stroke-linejoin:round;stroke-miterlimit:10;stroke-opacity:1;stroke-dasharray:none"
       id="path3332"
       inkscape:connector-curvature="0" /><path
       d="m 384.781,88.02884 -3.293,0"
       style="fill:none;stroke:#262626;stroke-width:0.369113;stroke-linecap:square;stroke-linejoin:round;stroke-miterlimit:10;stroke-opacity:1;stroke-dasharray:none"
       id="path3336"
       inkscape:connector-curvature="0" /><path
       d="m 384.781,113.21984 -3.293,0"
       style="fill:none;stroke:#262626;stroke-width:0.369113;stroke-linecap:square;stroke-linejoin:round;stroke-miterlimit:10;stroke-opacity:1;stroke-dasharray:none"
       id="path3340"
       inkscape:connector-curvature="0" /><path
       d="m 384.781,138.41184 -3.293,0"
       style="fill:none;stroke:#262626;stroke-width:0.369113;stroke-linecap:square;stroke-linejoin:round;stroke-miterlimit:10;stroke-opacity:1;stroke-dasharray:none"
       id="path3344"
       inkscape:connector-curvature="0" /><path
       d="m 55.363,88.02884 3.297,0"
       style="fill:none;stroke:#262626;stroke-width:0.369113;stroke-linecap:square;stroke-linejoin:round;stroke-miterlimit:10;stroke-opacity:1;stroke-dasharray:none"
       id="path3348"
       inkscape:connector-curvature="0" /><path
       d="m 55.363,113.21984 3.297,0"
       style="fill:none;stroke:#262626;stroke-width:0.369113;stroke-linecap:square;stroke-linejoin:round;stroke-miterlimit:10;stroke-opacity:1;stroke-dasharray:none"
       id="path3352"
       inkscape:connector-curvature="0" /><path
       d="m 55.363,138.41184 3.297,0"
       style="fill:none;stroke:#262626;stroke-width:0.369113;stroke-linecap:square;stroke-linejoin:round;stroke-miterlimit:10;stroke-opacity:1;stroke-dasharray:none"
       id="path3356"
       inkscape:connector-curvature="0" /><text
       id="text3358"
       transform="scale(1,-1)"
       x="388.02902"
       y="-84.984016"><tspan
         id="tspan3360"
         sodipodi:role="line"
         y="-84.984016"
         x="388.02902 391.21802 396.85187 402.48572 408.11957"
         style="font-size:8.85826683px;font-variant:normal;font-weight:normal;writing-mode:lr-tb;fill:#262626;fill-opacity:1;fill-rule:nonzero;stroke:none;font-family:DejaVu Sans;-inkscape-font-specification:DejaVuSans">-1000</tspan><tspan
         id="tspan3362"
         y="-110.17471"
         x="388.02902"
         style="font-size:8.85826683px;font-variant:normal;font-weight:normal;writing-mode:lr-tb;fill:#262626;fill-opacity:1;fill-rule:nonzero;stroke:none;font-family:DejaVu Sans;-inkscape-font-specification:DejaVuSans">0</tspan><tspan
         id="tspan3364"
         sodipodi:role="line"
         y="-135.3654"
         x="388.02902 393.6629 399.29675 404.9306"
         style="font-size:8.85826683px;font-variant:normal;font-weight:normal;writing-mode:lr-tb;fill:#262626;fill-opacity:1;fill-rule:nonzero;stroke:none;font-family:DejaVu Sans;-inkscape-font-specification:DejaVuSans">1000</tspan></text>
<g
       id="g9137"
       style="stroke:#000080"><path
         inkscape:connector-curvature="0"
         id="path3368"
         style="fill:none;stroke:#000080;stroke-width:1.47639596000000006;stroke-linecap:butt;stroke-linejoin:round;stroke-miterlimit:10;stroke-opacity:1;stroke-dasharray:none"
         d="m 74.691,112.04084 0.879,0.051 0.875,0.043 0.879,0.042 0.879,0.047 0.879,0.051 0.879,0.059 0.879,0.066 0.879,0.07 0.879,0.079 0.875,0.078 0.879,0.074 0.878,0.07 0.879,0.063 0.879,0.054 0.879,0.039 0.879,0.032 0.879,0.023 0.879,0.016 0.875,0.019 0.879,0.028 0.879,0.047 0.879,0.058 0.879,0.078 2.636,0.27 0.875,0.074 0.879,0.059 0.879,0.043 0.879,0.031 0.879,0.023 0.879,0.02 0.879,0.023 0.879,0.028 0.875,0.039 0.878,0.039 0.879,0.043 0.879,0.039 0.879,0.035 0.879,0.027 0.879,0.02 0.879,0.011 0.879,0.008 0.875,0.012 0.879,0.012 2.636,0.047 0.879,0.019" /><path
         inkscape:connector-curvature="0"
         id="path3372"
         style="fill:none;stroke:#000080;stroke-width:1.47639596000000006;stroke-linecap:butt;stroke-linejoin:round;stroke-miterlimit:10;stroke-opacity:1;stroke-dasharray:none"
         d="m 116.855,114.13084 0.879,0.019 0.879,0.024 0.879,0.035 0.875,0.047 0.879,0.07 0.879,0.098 0.879,0.113 0.879,0.133 0.879,0.125 0.879,0.097 0.879,0.059 0.878,-0.004 0.875,-0.07 0.879,-0.121 1.758,-0.321 0.879,-0.129 0.879,-0.074 0.879,-0.004 0.879,0.071 0.875,0.132 0.879,0.18 0.879,0.199 0.879,0.196 0.878,0.171 0.879,0.133 0.879,0.082 0.879,0.024 0.879,-0.035 0.875,-0.094 0.879,-0.133 1.758,-0.32 0.879,-0.137 0.879,-0.094 0.878,-0.039 0.879,0.016 0.875,0.066 0.879,0.098 0.879,0.113 0.879,0.11 0.879,0.085 0.879,0.063 0.879,0.027 0.879,0 0.879,-0.023 0.875,-0.047 0.879,-0.059 1.757,-0.148 0.879,-0.07" /><path
         inkscape:connector-curvature="0"
         id="path3376"
         style="fill:none;stroke:#000080;stroke-width:1.47639596000000006;stroke-linecap:butt;stroke-linejoin:round;stroke-miterlimit:10;stroke-opacity:1;stroke-dasharray:none"
         d="m 160.777,114.86484 0.879,-0.07 0.879,-0.063 0.879,-0.039 0.879,-0.019 0.875,0 0.879,0.003 0.879,0 0.879,-0.019 0.879,-0.051 0.878,-0.086 0.879,-0.117 0.879,-0.141 0.879,-0.144 0.875,-0.129 0.879,-0.105 0.879,-0.075 0.879,-0.039 0.879,-0.008 0.879,0.012 0.879,0.016 0.879,0.011 0.875,-0.007 0.878,-0.032 0.879,-0.054 0.879,-0.074 0.879,-0.094 0.879,-0.11 0.879,-0.117 0.879,-0.129 0.879,-0.14 0.875,-0.145 0.879,-0.152 0.879,-0.156 0.879,-0.149 0.878,-0.141 0.879,-0.128 0.879,-0.122 0.879,-0.117 0.875,-0.129 0.879,-0.144 0.879,-0.176 0.879,-0.219 0.879,-0.261 0.879,-0.309 0.879,-0.352 0.879,-0.394 0.874,-0.422 0.879,-0.449 0.879,-0.465 0.879,-0.48 0.879,-0.493" /><path
         inkscape:connector-curvature="0"
         id="path3380"
         style="fill:none;stroke:#000080;stroke-width:1.47639596000000006;stroke-linecap:butt;stroke-linejoin:round;stroke-miterlimit:10;stroke-opacity:1;stroke-dasharray:none"
         d="m 204.699,108.13484 0.879,-0.493 1.758,-0.992 0.879,-0.48 0.879,-0.446 0.875,-0.382 0.879,-0.301 0.879,-0.184 0.878,-0.047 0.879,0.102 0.879,0.25 0.879,0.394 0.879,0.524 0.875,0.633 0.879,0.722 0.879,0.801 0.879,0.871 0.879,0.942 0.879,1.019 0.879,1.106 0.878,1.191 0.879,1.273 0.875,1.34 0.879,1.379 0.879,1.387 0.879,1.355 0.879,1.286 0.879,1.183 0.879,1.067 0.879,0.937 0.875,0.813 0.879,0.695 0.879,0.582 0.878,0.465 0.879,0.332 0.879,0.168 0.879,-0.028 0.879,-0.257 0.879,-0.512 0.875,-0.781 0.879,-1.047 0.879,-1.289 0.879,-1.5 0.879,-1.672 0.878,-1.797 0.879,-1.879 0.879,-1.922 0.875,-1.918 0.879,-1.879 0.879,-1.804 0.879,-1.7" /><path
         inkscape:connector-curvature="0"
         id="path3384"
         style="fill:none;stroke:#000080;stroke-width:1.47639596000000006;stroke-linecap:butt;stroke-linejoin:round;stroke-miterlimit:10;stroke-opacity:1;stroke-dasharray:none"
         d="m 248.621,109.34184 0.879,-1.7 0.879,-1.566 0.879,-1.414 0.879,-1.254 0.879,-1.082 0.879,-0.902 0.875,-0.727 0.878,-0.547 0.879,-0.359 0.879,-0.172 0.879,0.016 0.879,0.195 0.879,0.375 0.879,0.543 0.875,0.699 0.879,0.848 0.879,0.972 0.879,1.09 0.878,1.188 0.879,1.257 0.879,1.317 0.879,1.348 0.879,1.359 0.875,1.355 0.879,1.325 0.879,1.289 0.879,1.226 0.879,1.16 0.879,1.082 0.879,0.989 0.878,0.894 0.875,0.789 0.879,0.68 0.879,0.566 0.879,0.442 0.879,0.308 0.879,0.172 0.879,0.035 0.879,-0.109 0.879,-0.234 0.875,-0.356 0.879,-0.453 0.879,-0.527 0.878,-0.582 0.879,-0.614 0.879,-0.621 0.879,-0.613 0.879,-0.598 0.875,-0.57 0.879,-0.555 0.879,-0.539" /><path
         inkscape:connector-curvature="0"
         id="path3388"
         style="fill:none;stroke:#000080;stroke-width:1.47639596000000006;stroke-linecap:butt;stroke-linejoin:round;stroke-miterlimit:10;stroke-opacity:1;stroke-dasharray:none"
         d="m 292.543,117.30584 1.758,-1.078 0.879,-0.551 0.879,-0.582 0.879,-0.628 0.878,-0.68 0.879,-0.735 0.875,-0.785 0.879,-0.816 0.879,-0.836 0.879,-0.828 0.879,-0.789 0.879,-0.727 0.879,-0.633 0.879,-0.515 0.875,-0.383 0.879,-0.242 0.878,-0.102 0.879,0.039 0.879,0.157 0.879,0.265 0.879,0.34 0.879,0.398 0.875,0.43 0.879,0.434 0.879,0.422 0.879,0.394 0.879,0.352 0.879,0.316 0.878,0.289 0.879,0.27 0.879,0.265 0.875,0.282 0.879,0.3 0.879,0.325 0.879,0.335 0.879,0.329 0.879,0.304 0.879,0.262 0.879,0.211 0.875,0.16 0.879,0.117 0.878,0.106 0.879,0.117 0.879,0.148 0.879,0.204 0.879,0.253 0.879,0.293 0.879,0.305 0.875,0.289 0.879,0.235" /><path
         inkscape:connector-curvature="0"
         id="path3392"
         style="fill:none;stroke:#000080;stroke-width:1.47639596000000006;stroke-linecap:butt;stroke-linejoin:round;stroke-miterlimit:10;stroke-opacity:1;stroke-dasharray:none"
         d="m 336.465,115.10684 0.879,0.235 0.879,0.164 0.879,0.07 0.878,-0.016 0.879,-0.086 0.879,-0.125 0.879,-0.14 0.875,-0.117 0.879,-0.083 0.879,-0.035 0.879,0.016 0.879,0.047 1.758,0.148 0.879,0.067 0.878,0.043 0.875,0.011 0.879,-0.031 0.879,-0.086 0.879,-0.152 0.879,-0.235 0.879,-0.312 0.879,-0.391 0.879,-0.461 0.875,-0.503 0.879,-0.524 0.879,-0.504 0.878,-0.461 0.879,-0.39 0.879,-0.309 0.879,-0.215 0.879,-0.129 0.879,-0.058" /></g><text
       xml:space="preserve"
       style="font-size:9.60000038px;font-style:normal;font-variant:normal;font-weight:500;font-stretch:normal;text-align:center;line-height:125%;writing-mode:lr-tb;text-anchor:middle;fill:#800000;fill-opacity:1;fill-rule:nonzero;stroke:none;font-family:Computer Modern;-inkscape-font-specification:Computer Modern Medium"
       x="-23.729954"
       y="-319.93423"
       id="text4166"
       sodipodi:linespacing="125%"
       transform="scale(1,-1)"><tspan
         sodipodi:role="line"
         id="tspan4168"
         x="-23.729954"
         y="-319.93423">y(t)</tspan></text>
<text
       xml:space="preserve"
       style="font-size:9.60000038px;font-style:normal;font-variant:normal;font-weight:500;font-stretch:normal;text-align:center;line-height:125%;writing-mode:lr-tb;text-anchor:middle;fill:#800000;fill-opacity:1;fill-rule:nonzero;stroke:none;font-family:Computer Modern;-inkscape-font-specification:Computer Modern Medium"
       x="-23.914604"
       y="-250.4742"
       id="text4170"
       sodipodi:linespacing="125%"
       transform="scale(1,-1)"><tspan
         sodipodi:role="line"
         id="tspan4172"
         x="-23.914604"
         y="-250.4742">y(t)*</tspan></text>
<text
       xml:space="preserve"
       style="font-size:9.60000038px;font-style:normal;font-variant:normal;font-weight:500;font-stretch:normal;text-align:center;line-height:125%;writing-mode:lr-tb;text-anchor:middle;fill:#800000;fill-opacity:1;fill-rule:nonzero;stroke:none;font-family:Computer Modern;-inkscape-font-specification:Computer Modern Medium"
       x="-23.914604"
       y="-180.55685"
       id="text4174"
       sodipodi:linespacing="125%"
       transform="scale(1,-1)"><tspan
         sodipodi:role="line"
         id="tspan4176"
         x="-23.914604"
         y="-180.55685">y(t)*</tspan></text>
<text
       xml:space="preserve"
       style="font-size:9.60000038px;font-style:normal;font-variant:normal;font-weight:500;font-stretch:normal;text-align:center;line-height:125%;writing-mode:lr-tb;text-anchor:middle;fill:#800000;fill-opacity:1;fill-rule:nonzero;stroke:none;font-family:Computer Modern;-inkscape-font-specification:Computer Modern Medium"
       x="-23.914604"
       y="-109.69079"
       id="text4178"
       sodipodi:linespacing="125%"
       transform="scale(1,-1)"><tspan
         sodipodi:role="line"
         id="tspan4180"
         x="-23.914604"
         y="-109.69079">y(t)*</tspan></text>
<path
       id="path4217"
       style="fill:none;stroke:#000000;stroke-width:1.60000002;stroke-linecap:butt;stroke-linejoin:round;stroke-miterlimit:4;stroke-opacity:1;stroke-dasharray:none"
       d="m -7.874969,245.12263 0.840172,0.002 0.840224,0.004 0.840164,0.009 0.840228,0.019 0.840228,0.0375 0.840163,0.0705 0.840229,0.12718 0.840162,0.21888 0.840229,0.36028 0.840228,0.56607 0.8401641,0.84841 0.8402269,1.21193 0.840164,1.64686 0.840228,2.12484 0.840228,2.59605 0.840176,2.99105 0.840202,3.23046 0.840203,3.23927 0.840201,2.96458 0.840204,2.3924 0.840199,1.55717 0.840205,0.54069 0.8402,-0.54069 0.840202,-1.55717 0.840202,-2.3924 0.840205,-2.96458 0.840202,-3.23927 0.840201,-3.23046 0.840203,-2.99105 0.8402,-2.59605 0.840204,-2.12484 0.840202,-1.64686 0.840203,-1.21193 0.8402,-0.84841 0.840205,-0.56607 0.840199,-0.36028 0.840204,-0.21888 0.840202,-0.12718 0.840202,-0.0705 0.840203,-0.0375 0.840203,-0.019 0.840201,-0.009 0.840201,-0.004 0.840204,-0.002"
       inkscape:connector-curvature="0" /><text
       xml:space="preserve"
       style="font-size:9.60000038px;font-style:normal;font-variant:normal;font-weight:500;font-stretch:normal;text-align:center;line-height:125%;writing-mode:lr-tb;text-anchor:middle;fill:#000000;fill-opacity:1;stroke:#000000;stroke-width:1.37600005;stroke-miterlimit:4;stroke-opacity:1;stroke-dasharray:none;font-family:Computer Modern;-inkscape-font-specification:Computer Modern Medium"
       x="51.67086"
       y="-257.60837"
       id="text4249"
       sodipodi:linespacing="125%"
       transform="scale(1,-1)"><tspan
         sodipodi:role="line"
         id="tspan4251"
         x="51.67086"
         y="-257.60837"
         style="fill:none;stroke:none">=</tspan></text>
<text
       xml:space="preserve"
       style="font-size:12px;font-style:normal;font-variant:normal;font-weight:500;font-stretch:normal;text-align:center;line-height:125%;writing-mode:lr-tb;text-anchor:middle;fill:#000000;fill-opacity:1;stroke:none;font-family:Computer Modern;-inkscape-font-specification:Computer Modern Medium"
       x="37.454418"
       y="216.99782"
       id="text4253"
       sodipodi:linespacing="125%"
       transform="matrix(0.8,0,0,-0.8,0,425.19684)"><tspan
         sodipodi:role="line"
         id="tspan4255"
         x="37.454418"
         y="216.99782" /></text>
<text
       xml:space="preserve"
       style="font-size:11.19999981px;font-style:normal;font-variant:normal;font-weight:500;font-stretch:normal;text-align:center;line-height:125%;writing-mode:lr-tb;text-anchor:middle;fill:none;stroke:#000000;stroke-width:0.60000002;stroke-miterlimit:10;stroke-opacity:1;stroke-dasharray:none;font-family:Computer Modern;-inkscape-font-specification:Computer Modern Medium"
       x="40.68544"
       y="-250.407"
       id="text4174-3"
       sodipodi:linespacing="125%"
       transform="scale(1,-1)"><tspan
         sodipodi:role="line"
         id="tspan4176-6"
         x="40.68544"
         y="-250.407">=</tspan></text>
<path
       inkscape:connector-curvature="0"
       id="path4313"
       style="fill:none;stroke:#000000;stroke-width:1.60000002;stroke-linecap:butt;stroke-linejoin:round;stroke-miterlimit:10;stroke-opacity:1;stroke-dasharray:none"
       d="m -5.497801,183.26407 0.73215,0.007 0.73215,0.0142 0.73215,0.0287 0.73214,0.0558 0.73215,0.10272 0.73215,0.18038 0.73215,0.30118 0.73215,0.47733 0.73215,0.71629 0.7321504,1.01503 0.7321496,1.35248 0.73215,1.68316 0.73215,1.93809 0.73214,2.0286 0.73215,1.8661 0.73215,1.38398 0.73215,0.56675 0.73215,-0.53115 0.73215,-1.77856 0.73214,-2.98694 0.73215,-3.94707 0.73215,-4.47897 0.73215,-4.479 0.73215,-3.94703 0.73215,-2.98692 0.73214,-1.77864 0.73215,-0.53104 0.73215,0.56666 0.73215,1.38401 0.73215,1.86607 0.73215,2.02862 0.73215,1.93805 0.73215,1.68326 0.73214,1.35244 0.73215,1.01502 0.73215,0.71629 0.73215,0.47733 0.73215,0.30119 0.73215,0.18037 0.73215,0.10272 0.73215,0.0558 0.73215,0.0287 0.73214,0.0142 0.73215,0.007" /><path
       inkscape:connector-curvature="0"
       id="path4371"
       style="fill:none;stroke:#000000;stroke-width:1.60000002;stroke-linecap:butt;stroke-linejoin:round;stroke-miterlimit:10;stroke-opacity:1;stroke-dasharray:none"
       d="m -8.62284,117.9669 0.87417,0.0215 0.87422,0.043 0.87416,0.0817 0.87422,0.14705 0.87422,0.2503 0.87416,0.40246 0.87422,0.60804 0.87415,0.85835 0.87423,1.12262 0.87422,1.34111 0.87416,1.42557 0.8742196,1.27034 0.8741604,0.78033 0.87422,-0.0916 0.87422,-1.30472 0.87417,-2.70597 0.874199,-4.03608 0.874196,-4.97728 0.874197,-5.23626 0.874196,-4.63798 0.874196,-3.19756 0.874196,-1.14111 0.874196,1.14111 0.874197,3.19756 0.874196,4.63798 0.874196,5.23626 0.874197,4.97728 0.874196,4.03608 0.874196,2.70597 0.874196,1.30472 0.874197,0.0916 0.874196,-0.78033 0.874196,-1.27034 0.874196,-1.42557 0.874197,-1.34111 0.874196,-1.12262 0.874196,-0.85835 0.874196,-0.60804 0.874197,-0.40246 0.874196,-0.2503 0.874196,-0.14705 0.874197,-0.0817 0.874196,-0.043 0.874196,-0.0215" /><text
       xml:space="preserve"
       style="font-size:11.19999981px;font-style:normal;font-variant:normal;font-weight:500;font-stretch:normal;text-align:center;line-height:125%;writing-mode:lr-tb;text-anchor:middle;fill:none;stroke:#000000;stroke-width:0.60000002;stroke-miterlimit:10;stroke-opacity:1;stroke-dasharray:none;font-family:Computer Modern;-inkscape-font-specification:Computer Modern Medium"
       x="40.68544"
       y="-180.48965"
       id="text4174-3-5"
       sodipodi:linespacing="125%"
       transform="scale(1,-1)"><tspan
         style="font-size:11.19999981px;font-style:normal;font-variant:normal;font-weight:500;font-stretch:normal;text-align:center;line-height:125%;writing-mode:lr-tb;text-anchor:middle;stroke-width:0.60000002;font-family:Computer Modern;-inkscape-font-specification:Computer Modern Medium"
         sodipodi:role="line"
         id="tspan4176-6-3"
         x="40.68544"
         y="-180.48965">=</tspan></text>
<text
       xml:space="preserve"
       style="font-size:11.19999981px;font-style:normal;font-variant:normal;font-weight:500;font-stretch:normal;text-align:center;line-height:125%;writing-mode:lr-tb;text-anchor:middle;fill:none;stroke:#000000;stroke-width:0.60000002;stroke-miterlimit:10;stroke-opacity:1;stroke-dasharray:none;font-family:Computer Modern;-inkscape-font-specification:Computer Modern Medium"
       x="40.68544"
       y="-109.62358"
       id="text4174-3-56"
       sodipodi:linespacing="125%"
       transform="scale(1,-1)"><tspan
         style="font-size:11.19999981px;font-style:normal;font-variant:normal;font-weight:500;font-stretch:normal;text-align:center;line-height:125%;writing-mode:lr-tb;text-anchor:middle;stroke-width:0.60000002;font-family:Computer Modern;-inkscape-font-specification:Computer Modern Medium"
         sodipodi:role="line"
         id="tspan4176-6-2"
         x="40.68544"
         y="-109.62358">=</tspan></text>
<text
       xml:space="preserve"
       style="font-size:9.60000038px;font-style:normal;font-variant:normal;font-weight:500;font-stretch:normal;text-align:center;line-height:125%;writing-mode:lr-tb;text-anchor:middle;fill:#000000;fill-opacity:1;fill-rule:nonzero;stroke:none;font-family:Computer Modern;-inkscape-font-specification:Computer Modern Medium"
       x="408.85684"
       y="-333.08826"
       id="text8319"
       sodipodi:linespacing="125%"
       transform="scale(1,-1)"><tspan
         sodipodi:role="line"
         id="tspan8321"
         x="408.85684"
         y="-333.08826"
         style="fill:#000000;stroke:none">mm</tspan></text>
<text
       xml:space="preserve"
       style="font-size:9.60000038px;font-style:normal;font-variant:normal;font-weight:500;font-stretch:normal;text-align:center;line-height:125%;writing-mode:lr-tb;text-anchor:middle;fill:#000000;fill-opacity:1;fill-rule:nonzero;stroke:none;font-family:Computer Modern;-inkscape-font-specification:Computer Modern Medium"
       x="408.84665"
       y="-261.94675"
       id="text8323"
       sodipodi:linespacing="125%"
       transform="scale(1,-1)"><tspan
         sodipodi:role="line"
         id="tspan8325"
         x="408.84665"
         y="-261.94675">mm</tspan></text>
<text
       xml:space="preserve"
       style="font-size:9.60000038px;font-style:normal;font-variant:normal;font-weight:500;font-stretch:normal;text-align:center;line-height:125%;writing-mode:lr-tb;text-anchor:middle;fill:#000000;fill-opacity:1;fill-rule:nonzero;stroke:none;font-family:Computer Modern;-inkscape-font-specification:Computer Modern Medium"
       x="408.84665"
       y="-183.7328"
       id="text8327"
       sodipodi:linespacing="125%"
       transform="scale(1,-1)"><tspan
         sodipodi:role="line"
         id="tspan8329"
         x="408.84665"
         y="-183.7328">m/s</tspan></text>
<text
       xml:space="preserve"
       style="font-size:12px;font-style:normal;font-variant:normal;font-weight:500;font-stretch:normal;text-align:center;line-height:125%;writing-mode:lr-tb;text-anchor:middle;fill:#000000;fill-opacity:1;fill-rule:nonzero;stroke:none;font-family:Computer Modern;-inkscape-font-specification:Computer Modern Medium"
       x="505.74323"
       y="382.82849"
       id="text8331"
       sodipodi:linespacing="125%"
       transform="matrix(0.8,0,0,-0.8,0,425.19684)"><tspan
         sodipodi:role="line"
         id="tspan8333" /></text>
<g
       id="g9055"
       transform="translate(-14.426222,2.9186265)"><text
         y="-99.527206"
         x="409.43204"
         transform="scale(1,-1)"
         id="text8728"
         style="font-size:9.60000038px;font-style:normal;font-variant:normal;font-weight:500;font-stretch:normal;text-align:start;line-height:125%;writing-mode:lr-tb;text-anchor:start;font-family:Computer Modern;-inkscape-font-specification:Computer Modern Medium"
         sodipodi:linespacing="125%"><tspan
           sodipodi:role="line"
           id="tspan9061"
           x="409.43204"
           y="-99.527206">m/s</tspan></text>
<text
         y="-102.35634"
         x="431.94858"
         transform="scale(1,-1)"
         id="text8732"
         style="font-size:12px;line-height:125%"
         sodipodi:linespacing="125%"><tspan
           style="font-size:7.2px;font-style:normal;font-variant:normal;font-weight:500;font-stretch:normal;text-align:start;line-height:125%;writing-mode:lr;text-anchor:start;fill:#262626;fill-opacity:1;fill-rule:nonzero;stroke:none;font-family:Computer Modern;-inkscape-font-specification:Computer Modern Medium"
           x="431.94858"
           y="-102.35634"
           id="tspan8734">2</tspan></text>
</g><text
       xml:space="preserve"
       style="font-size:9.60000038px;font-style:normal;font-variant:normal;font-weight:500;font-stretch:normal;text-align:start;line-height:125%;writing-mode:lr-tb;text-anchor:start;fill:#000000;fill-opacity:1;fill-rule:nonzero;stroke:none;font-family:Computer Modern;-inkscape-font-specification:Computer Modern Medium"
       x="-11.002081"
       y="-319.87665"
       id="text9063"
       sodipodi:linespacing="125%"
       transform="scale(1,-1)"><tspan
         sodipodi:role="line"
         id="tspan9065"
         x="-11.002081"
         y="-319.87665">(measured)</tspan></text>
<text
       xml:space="preserve"
       style="font-size:11.19999981px;font-style:normal;font-variant:normal;font-weight:500;font-stretch:normal;text-align:center;line-height:125%;writing-mode:lr-tb;text-anchor:middle;fill:#000000;fill-opacity:1;fill-rule:nonzero;stroke:none;font-family:Computer Modern;-inkscape-font-specification:Computer Modern Medium"
       x="223.27492"
       y="-60.926342"
       id="text9086"
       sodipodi:linespacing="125%"
       transform="scale(1,-1)"><tspan
         sodipodi:role="line"
         id="tspan9088"
         x="223.27492"
         y="-60.926342"
         style="font-size:9.6px">Time (s)</tspan></text>
<g
       id="g28043"
       transform="matrix(1,0,0,-1,0,699.56874)"><g
         id="g27434"
         transform="matrix(1,0,0,-1,0.097404,688.50587)"><path
           d="m 55.363,337.168 329.418,0"
           style="fill:none;stroke:#262626;stroke-width:0.369113;stroke-linecap:square;stroke-linejoin:round;stroke-miterlimit:10;stroke-opacity:1;stroke-dasharray:none"
           id="path27436"
           inkscape:connector-curvature="0" /></g><g
         id="g27442"
         transform="matrix(1,0,0,-1,0.097404,688.50587)"><path
           d="m 55.363,337.168 0,-3.293"
           style="fill:none;stroke:#262626;stroke-width:0.369113;stroke-linecap:square;stroke-linejoin:round;stroke-miterlimit:10;stroke-opacity:1;stroke-dasharray:none"
           id="path27444"
           inkscape:connector-curvature="0" /></g><g
         id="g27446"
         transform="matrix(1,0,0,-1,0.097404,688.50587)"><path
           d="m 117.266,337.168 0,-3.293"
           style="fill:none;stroke:#262626;stroke-width:0.369113;stroke-linecap:square;stroke-linejoin:round;stroke-miterlimit:10;stroke-opacity:1;stroke-dasharray:none"
           id="path27448"
           inkscape:connector-curvature="0" /></g><g
         id="g27450"
         transform="matrix(1,0,0,-1,0.097404,688.50587)"><path
           d="m 179.168,337.168 0,-3.293"
           style="fill:none;stroke:#262626;stroke-width:0.369113;stroke-linecap:square;stroke-linejoin:round;stroke-miterlimit:10;stroke-opacity:1;stroke-dasharray:none"
           id="path27452"
           inkscape:connector-curvature="0" /></g><g
         id="g27454"
         transform="matrix(1,0,0,-1,0.097404,688.50587)"><path
           d="m 241.07,337.168 0,-3.293"
           style="fill:none;stroke:#262626;stroke-width:0.369113;stroke-linecap:square;stroke-linejoin:round;stroke-miterlimit:10;stroke-opacity:1;stroke-dasharray:none"
           id="path27456"
           inkscape:connector-curvature="0" /></g><g
         id="g27458"
         transform="matrix(1,0,0,-1,0.097404,688.50587)"><path
           d="m 302.973,337.168 0,-3.293"
           style="fill:none;stroke:#262626;stroke-width:0.369113;stroke-linecap:square;stroke-linejoin:round;stroke-miterlimit:10;stroke-opacity:1;stroke-dasharray:none"
           id="path27460"
           inkscape:connector-curvature="0" /></g><g
         id="g27462"
         transform="matrix(1,0,0,-1,0.097404,688.50587)"><path
           d="m 364.875,337.168 0,-3.293"
           style="fill:none;stroke:#262626;stroke-width:0.369113;stroke-linecap:square;stroke-linejoin:round;stroke-miterlimit:10;stroke-opacity:1;stroke-dasharray:none"
           id="path27464"
           inkscape:connector-curvature="0" /></g><g
         id="g27502"
         transform="matrix(1,0,0,-1,0.097404,688.50587)"><path
           d="m 55.363,337.168 3.297,0"
           style="fill:none;stroke:#262626;stroke-width:0.369113;stroke-linecap:square;stroke-linejoin:round;stroke-miterlimit:10;stroke-opacity:1;stroke-dasharray:none"
           id="path27504"
           inkscape:connector-curvature="0" /></g><g
         id="g27546"
         transform="matrix(1,0,0,-1,0.097404,688.50587)"><path
           d="m 384.781,337.168 -3.293,0"
           style="fill:none;stroke:#262626;stroke-width:0.369113;stroke-linecap:square;stroke-linejoin:round;stroke-miterlimit:10;stroke-opacity:1;stroke-dasharray:none"
           id="path27548"
           inkscape:connector-curvature="0" /></g></g><text
       transform="matrix(0.8,0,0,-0.8,0,425.19684)"
       sodipodi:linespacing="125%"
       id="text28464"
       y="54.891708"
       x="232.17531"
       style="font-size:20px;font-style:normal;font-variant:normal;font-weight:500;font-stretch:normal;text-indent:0;text-align:center;text-decoration:none;line-height:125%;letter-spacing:normal;word-spacing:normal;text-transform:none;direction:ltr;block-progression:tb;writing-mode:lr-tb;text-anchor:middle;baseline-shift:baseline;color:#000000;fill:#000000;fill-opacity:1;fill-rule:nonzero;stroke:none;stroke-width:3;marker:none;visibility:visible;display:inline;overflow:visible;enable-background:accumulate;font-family:Computer Modern;-inkscape-font-specification:Computer Modern Medium"
       xml:space="preserve"><tspan
         y="54.891708"
         x="232.17531"
         id="tspan28466"
         sodipodi:role="line" /></text>
<text
       xml:space="preserve"
       style="font-size:16px;font-style:normal;font-variant:normal;font-weight:500;font-stretch:normal;text-indent:0;text-align:center;text-decoration:none;line-height:125%;letter-spacing:0px;word-spacing:0px;text-transform:none;direction:ltr;block-progression:tb;writing-mode:lr-tb;text-anchor:middle;baseline-shift:baseline;color:#000000;fill:#000000;fill-opacity:1;fill-rule:nonzero;stroke:none;stroke-width:3;marker:none;visibility:visible;display:inline;overflow:visible;enable-background:accumulate;font-family:Computer Modern;-inkscape-font-specification:Computer Modern Medium"
       x="-66.706352"
       y="-316.44684"
       id="text4927"
       sodipodi:linespacing="125%"
       transform="scale(1,-1)"><tspan
         sodipodi:role="line"
         id="tspan4929"
         x="-66.706352"
         y="-316.44684">Pos:</tspan></text>
<text
       xml:space="preserve"
       style="font-size:16px;font-style:normal;font-variant:normal;font-weight:500;font-stretch:normal;text-indent:0;text-align:center;text-decoration:none;line-height:125%;letter-spacing:0px;word-spacing:0px;text-transform:none;direction:ltr;block-progression:tb;writing-mode:lr-tb;text-anchor:middle;baseline-shift:baseline;color:#000000;fill:#000000;fill-opacity:1;fill-rule:nonzero;stroke:none;stroke-width:3;marker:none;visibility:visible;display:inline;overflow:visible;enable-background:accumulate;font-family:Computer Modern;-inkscape-font-specification:Computer Modern Medium"
       x="-91.331352"
       y="-264.98883"
       id="text4927-3"
       sodipodi:linespacing="125%"
       transform="scale(1,-1)"><tspan
         sodipodi:role="line"
         id="tspan4929-6"
         x="-87.815727"
         y="-264.98883">Pos. </tspan><tspan
         sodipodi:role="line"
         x="-91.331352"
         y="-244.98883"
         id="tspan4960">(filtered):</tspan></text>
<text
       xml:space="preserve"
       style="font-size:16px;font-style:normal;font-variant:normal;font-weight:500;font-stretch:normal;text-indent:0;text-align:center;text-decoration:none;line-height:125%;letter-spacing:0px;word-spacing:0px;text-transform:none;direction:ltr;block-progression:tb;writing-mode:lr-tb;text-anchor:middle;baseline-shift:baseline;color:#000000;fill:#000000;fill-opacity:1;fill-rule:nonzero;stroke:none;stroke-width:3;marker:none;visibility:visible;display:inline;overflow:visible;enable-background:accumulate;font-family:Computer Modern;-inkscape-font-specification:Computer Modern Medium"
       x="-65.596977"
       y="-175.64931"
       id="text4952"
       sodipodi:linespacing="125%"
       transform="scale(1,-1)"><tspan
         sodipodi:role="line"
         id="tspan4954"
         x="-65.596977"
         y="-175.64931">Vel:</tspan></text>
<text
       xml:space="preserve"
       style="font-size:16px;font-style:normal;font-variant:normal;font-weight:500;font-stretch:normal;text-indent:0;text-align:center;text-decoration:none;line-height:125%;letter-spacing:0px;word-spacing:0px;text-transform:none;direction:ltr;block-progression:tb;writing-mode:lr-tb;text-anchor:middle;baseline-shift:baseline;color:#000000;fill:#000000;fill-opacity:1;fill-rule:nonzero;stroke:none;stroke-width:3;marker:none;visibility:visible;display:inline;overflow:visible;enable-background:accumulate;font-family:Computer Modern;-inkscape-font-specification:Computer Modern Medium"
       x="-67.237602"
       y="-104.87264"
       id="text4956"
       sodipodi:linespacing="125%"
       transform="scale(1,-1)"><tspan
         sodipodi:role="line"
         id="tspan4958"
         x="-67.237602"
         y="-104.87264">Acc:</tspan></text>
</g><g
     inkscape:groupmode="layer"
     id="layer1"
     inkscape:label="new"
     style="display:none"><text
       xml:space="preserve"
       style="font-size:9.60000038px;font-style:normal;font-variant:normal;font-weight:500;font-stretch:normal;text-indent:0;text-align:center;text-decoration:none;line-height:125%;letter-spacing:normal;word-spacing:normal;text-transform:none;direction:ltr;block-progression:tb;writing-mode:lr-tb;text-anchor:middle;baseline-shift:baseline;color:#000000;fill:#000000;fill-opacity:1;fill-rule:nonzero;stroke:none;stroke-width:3;marker:none;visibility:visible;display:inline;overflow:visible;enable-background:accumulate;font-family:Computer Modern;-inkscape-font-specification:Computer Modern Medium"
       x="265.59503"
       y="-364.46353"
       id="text29772"
       sodipodi:linespacing="125%"
       transform="matrix(1.25,0,0,1.25,0,531.49605)"><tspan
         sodipodi:role="line"
         id="tspan29774"
         x="265.59503"
         y="-364.46353">(Time normalized by acceleration timescale)</tspan></text>
<g
       id="g29527"
       ns0:preamble=""
       ns0:text="$\\tau / \\tau_{a_y}$"
       transform="matrix(1.8027871,0,0,1.8027871,-274.15484,-169.23077)"><defs
         id="defs29529"><g
           id="g29531"><symbol
             id="textext-4eaee2e2-0"
             overflow="visible"
             style="overflow:visible"><path
               id="path29534"
               d=""
               style="stroke:none"
               inkscape:connector-curvature="0" /></symbol><symbol
             id="textext-4eaee2e2-1"
             overflow="visible"
             style="overflow:visible"><path
               id="path29537"
               d="m 2.9375,-3.71875 1.671875,0 c 0.125,0 0.484375,0 0.484375,-0.34375 0,-0.234375 -0.203125,-0.234375 -0.40625,-0.234375 l -2.78125,0 c -0.203125,0 -0.59375,0 -1.03125,0.46875 -0.328125,0.359375 -0.609375,0.84375 -0.609375,0.890625 0,0.015625 0,0.109375 0.125,0.109375 0.078125,0 0.09375,-0.046875 0.15625,-0.125 C 1.03125,-3.71875 1.609375,-3.71875 1.8125,-3.71875 l 0.828125,0 -0.96875,3.203125 C 1.625,-0.40625 1.5625,-0.1875 1.5625,-0.15625 c 0,0.109375 0.078125,0.28125 0.296875,0.28125 0.328125,0 0.375,-0.28125 0.40625,-0.4375 z m 0,0"
               style="stroke:none"
               inkscape:connector-curvature="0" /></symbol><symbol
             id="textext-4eaee2e2-2"
             overflow="visible"
             style="overflow:visible"><path
               id="path29540"
               d="m 4.375,-7.09375 c 0.046875,-0.140625 0.046875,-0.171875 0.046875,-0.1875 0,-0.109375 -0.078125,-0.203125 -0.1875,-0.203125 -0.078125,0 -0.140625,0.03125 -0.171875,0.09375 l -3.46875,9.5 C 0.546875,2.25 0.546875,2.28125 0.546875,2.296875 0.546875,2.40625 0.640625,2.5 0.75,2.5 0.875,2.5 0.90625,2.421875 0.96875,2.25 z m 0,0"
               style="stroke:none"
               inkscape:connector-curvature="0" /></symbol><symbol
             id="textext-4eaee2e2-3"
             overflow="visible"
             style="overflow:visible"><path
               id="path29543"
               d=""
               style="stroke:none"
               inkscape:connector-curvature="0" /></symbol><symbol
             id="textext-4eaee2e2-4"
             overflow="visible"
             style="overflow:visible"><path
               id="path29546"
               d="m 2.9375,-2.65625 c -0.140625,-0.234375 -0.375,-0.421875 -0.71875,-0.421875 -0.890625,0 -1.796875,0.984375 -1.796875,1.984375 0,0.6875 0.453125,1.15625 1.0625,1.15625 0.375,0 0.703125,-0.203125 0.984375,-0.484375 C 2.59375,0 3,0.0625 3.1875,0.0625 c 0.25,0 0.421875,-0.140625 0.546875,-0.359375 0.15625,-0.28125 0.25,-0.671875 0.25,-0.703125 0,-0.09375 -0.09375,-0.09375 -0.109375,-0.09375 -0.109375,0 -0.109375,0.03125 -0.15625,0.21875 C 3.625,-0.53125 3.5,-0.125 3.203125,-0.125 3.03125,-0.125 2.96875,-0.28125 2.96875,-0.46875 c 0,-0.109375 0.0625,-0.375 0.109375,-0.546875 0.046875,-0.1875 0.125,-0.46875 0.15625,-0.625 L 3.375,-2.171875 C 3.421875,-2.359375 3.5,-2.6875 3.5,-2.71875 3.5,-2.875 3.375,-2.9375 3.265625,-2.9375 c -0.125,0 -0.28125,0.078125 -0.328125,0.28125 z M 2.5,-0.875 C 2.453125,-0.671875 2.296875,-0.53125 2.140625,-0.40625 2.078125,-0.34375 1.796875,-0.125 1.5,-0.125 c -0.265625,0 -0.515625,-0.1875 -0.515625,-0.671875 0,-0.375 0.203125,-1.140625 0.375,-1.421875 0.3125,-0.5625 0.671875,-0.65625 0.859375,-0.65625 0.484375,0 0.625,0.53125 0.625,0.609375 0,0.015625 -0.015625,0.078125 -0.015625,0.09375 z m 0,0"
               style="stroke:none"
               inkscape:connector-curvature="0" /></symbol><symbol
             id="textext-4eaee2e2-5"
             overflow="visible"
             style="overflow:visible"><path
               id="path29549"
               d=""
               style="stroke:none"
               inkscape:connector-curvature="0" /></symbol><symbol
             id="textext-4eaee2e2-6"
             overflow="visible"
             style="overflow:visible"><path
               id="path29552"
               d="M 3.296875,-1.859375 C 3.3125,-1.9375 3.3125,-1.96875 3.3125,-1.96875 c 0,-0.109375 -0.078125,-0.171875 -0.171875,-0.171875 -0.203125,0 -0.25,0.171875 -0.28125,0.296875 L 2.75,-1.421875 l -0.140625,0.625 c -0.03125,0.0625 -0.046875,0.15625 -0.0625,0.1875 0,0.03125 -0.265625,0.5 -0.6875,0.5 -0.234375,0 -0.40625,-0.109375 -0.40625,-0.4375 0,-0.265625 0.140625,-0.640625 0.28125,-1 0.03125,-0.046875 0.0625,-0.140625 0.0625,-0.21875 0,-0.25 -0.234375,-0.4375 -0.546875,-0.4375 -0.515625,0 -0.796875,0.640625 -0.796875,0.765625 0,0.078125 0.078125,0.078125 0.109375,0.078125 0.078125,0 0.078125,-0.03125 0.109375,-0.09375 0.109375,-0.34375 0.34375,-0.578125 0.5625,-0.578125 0.09375,0 0.15625,0.046875 0.15625,0.1875 0,0.09375 -0.03125,0.171875 -0.0625,0.265625 -0.25,0.59375 -0.296875,0.765625 -0.296875,0.96875 0,0.546875 0.46875,0.671875 0.796875,0.671875 0.28125,0 0.5,-0.140625 0.625,-0.25 -0.078125,0.28125 -0.125,0.5 -0.359375,0.734375 -0.125,0.109375 -0.359375,0.3125 -0.65625,0.3125 -0.09375,0 -0.28125,-0.015625 -0.390625,-0.125 0.21875,-0.0625 0.25,-0.25 0.25,-0.296875 0,-0.140625 -0.125,-0.203125 -0.21875,-0.203125 -0.15625,0 -0.328125,0.109375 -0.328125,0.34375 0,0.25 0.265625,0.4375 0.6875,0.4375 C 2,1.015625 2.671875,0.640625 2.828125,0 z m 0,0"
               style="stroke:none"
               inkscape:connector-curvature="0" /></symbol></g></defs><g
         id="textext-4eaee2e2-7"><g
           id="g29555"
           style="fill:#000000;fill-opacity:1"><use
             id="use29557"
             y="134.765"
             x="223.43201"
             xlink:href="#textext-4eaee2e2-1"
             width="531.49603"
             height="531.49603" /></g><g
           id="g29559"
           style="fill:#000000;fill-opacity:1"><use
             id="use29561"
             y="134.765"
             x="228.91342"
             xlink:href="#textext-4eaee2e2-2"
             width="531.49603"
             height="531.49603" /><use
             id="use29563"
             y="134.765"
             x="233.89473"
             xlink:href="#textext-4eaee2e2-1"
             width="531.49603"
             height="531.49603" /></g><g
           id="g29565"
           style="fill:#000000;fill-opacity:1"><use
             id="use29567"
             y="136.259"
             x="238.252"
             xlink:href="#textext-4eaee2e2-4"
             width="531.49603"
             height="531.49603" /></g><g
           id="g29569"
           style="fill:#000000;fill-opacity:1"><use
             id="use29571"
             y="137.256"
             x="242.573"
             xlink:href="#textext-4eaee2e2-6"
             width="531.49603"
             height="531.49603" /></g></g></g><text
       id="text27490"
       transform="matrix(1.25,0,0,1.25,0,531.49605)"
       x="52.416546"
       y="-350.9855"><tspan
         id="tspan27492"
         sodipodi:role="line"
         y="-350.9855"
         x="52.416546 114.31812 173.45274 179.08661 235.35431 240.98817 297.25717 302.89105 359.15875 364.7926"
         style="font-size:8.85826683px;font-variant:normal;font-weight:normal;writing-mode:lr-tb;fill:#262626;fill-opacity:1;fill-rule:nonzero;stroke:none;font-family:DejaVu Sans;-inkscape-font-specification:DejaVuSans">0510152025</tspan></text>
</g></svg>