\beamer@endinputifotherversion {3.33pt}
\headcommand {\slideentry {0}{0}{1}{1/1}{}{0}}
\headcommand {\beamer@framepages {1}{1}}
\headcommand {\sectionentry {1}{Motivation}{2}{Motivation}{0}}
\headcommand {\beamer@sectionpages {1}{1}}
\headcommand {\beamer@subsectionpages {1}{1}}
\headcommand {\slideentry {1}{0}{2}{2/2}{}{0}}
\headcommand {\beamer@framepages {2}{2}}
\headcommand {\slideentry {1}{0}{3}{3/20}{}{0}}
\headcommand {\beamer@framepages {3}{20}}
\headcommand {\slideentry {1}{0}{4}{21/29}{}{0}}
\headcommand {\beamer@framepages {21}{29}}
\headcommand {\slideentry {1}{0}{5}{30/32}{}{0}}
\headcommand {\beamer@framepages {30}{32}}
\headcommand {\slideentry {1}{0}{6}{33/33}{}{0}}
\headcommand {\beamer@framepages {33}{33}}
\headcommand {\sectionentry {2}{Experimental methods}{34}{Experimental methods}{0}}
\headcommand {\beamer@sectionpages {2}{33}}
\headcommand {\beamer@subsectionpages {2}{33}}
\headcommand {\slideentry {2}{0}{7}{34/34}{}{0}}
\headcommand {\beamer@framepages {34}{34}}
\headcommand {\slideentry {2}{0}{8}{35/43}{}{0}}
\headcommand {\beamer@framepages {35}{43}}
\headcommand {\slideentry {2}{0}{9}{44/44}{}{0}}
\headcommand {\beamer@framepages {44}{44}}
\headcommand {\slideentry {2}{0}{10}{45/56}{}{0}}
\headcommand {\beamer@framepages {45}{56}}
\headcommand {\slideentry {2}{0}{11}{57/59}{}{0}}
\headcommand {\beamer@framepages {57}{59}}
\headcommand {\slideentry {2}{0}{12}{60/60}{}{0}}
\headcommand {\beamer@framepages {60}{60}}
\headcommand {\slideentry {2}{0}{13}{61/61}{}{0}}
\headcommand {\beamer@framepages {61}{61}}
\headcommand {\sectionentry {3}{Lagrangian statistics of inhomogeneous turbulence }{62}{Lagrangian statistics of inhomogeneous turbulence }{0}}
\headcommand {\beamer@sectionpages {34}{61}}
\headcommand {\beamer@subsectionpages {34}{61}}
\headcommand {\slideentry {3}{0}{14}{62/62}{}{0}}
\headcommand {\beamer@framepages {62}{62}}
\headcommand {\slideentry {3}{0}{15}{63/63}{}{0}}
\headcommand {\beamer@framepages {63}{63}}
\headcommand {\slideentry {3}{0}{16}{64/64}{}{0}}
\headcommand {\beamer@framepages {64}{64}}
\headcommand {\slideentry {3}{0}{17}{65/65}{}{0}}
\headcommand {\beamer@framepages {65}{65}}
\headcommand {\slideentry {3}{0}{18}{66/67}{}{0}}
\headcommand {\beamer@framepages {66}{67}}
\headcommand {\slideentry {3}{0}{19}{68/69}{}{0}}
\headcommand {\beamer@framepages {68}{69}}
\headcommand {\slideentry {3}{0}{20}{70/73}{}{0}}
\headcommand {\beamer@framepages {70}{73}}
\headcommand {\slideentry {3}{0}{21}{74/74}{}{0}}
\headcommand {\beamer@framepages {74}{74}}
\headcommand {\slideentry {3}{0}{22}{75/75}{}{0}}
\headcommand {\beamer@framepages {75}{75}}
\headcommand {\slideentry {3}{0}{23}{76/78}{}{0}}
\headcommand {\beamer@framepages {76}{78}}
\headcommand {\sectionentry {4}{Non-tracer particle Lagrangian statistics}{79}{Non-tracer particle Lagrangian statistics}{0}}
\headcommand {\beamer@sectionpages {62}{78}}
\headcommand {\beamer@subsectionpages {62}{78}}
\headcommand {\slideentry {4}{0}{24}{79/79}{}{0}}
\headcommand {\beamer@framepages {79}{79}}
\headcommand {\slideentry {4}{0}{25}{80/81}{}{0}}
\headcommand {\beamer@framepages {80}{81}}
\headcommand {\slideentry {4}{0}{26}{82/82}{}{0}}
\headcommand {\beamer@framepages {82}{82}}
\headcommand {\slideentry {4}{0}{27}{83/84}{}{0}}
\headcommand {\beamer@framepages {83}{84}}
\headcommand {\slideentry {4}{0}{28}{85/85}{}{0}}
\headcommand {\beamer@framepages {85}{85}}
\headcommand {\slideentry {4}{0}{29}{86/86}{}{0}}
\headcommand {\beamer@framepages {86}{86}}
\headcommand {\slideentry {4}{0}{30}{87/90}{}{0}}
\headcommand {\beamer@framepages {87}{90}}
\headcommand {\slideentry {4}{0}{31}{91/92}{}{0}}
\headcommand {\beamer@framepages {91}{92}}
\headcommand {\sectionentry {5}{Conclusions and perspectives}{93}{Conclusions and perspectives}{0}}
\headcommand {\beamer@sectionpages {79}{92}}
\headcommand {\beamer@subsectionpages {79}{92}}
\headcommand {\slideentry {5}{0}{32}{93/96}{}{0}}
\headcommand {\beamer@framepages {93}{96}}
\headcommand {\slideentry {5}{0}{33}{97/99}{}{0}}
\headcommand {\beamer@framepages {97}{99}}
\headcommand {\slideentry {5}{0}{34}{100/100}{}{0}}
\headcommand {\beamer@framepages {100}{100}}
\headcommand {\slideentry {5}{0}{35}{101/102}{}{0}}
\headcommand {\beamer@framepages {101}{102}}
\headcommand {\beamer@partpages {1}{102}}
\headcommand {\beamer@subsectionpages {93}{102}}
\headcommand {\beamer@sectionpages {93}{102}}
\headcommand {\beamer@documentpages {102}}
\headcommand {\def \inserttotalframenumber {32}}
