\relax 
\providecommand\hyper@newdestlabel[2]{}
\providecommand\zref@newlabel[2]{}
\providecommand\HyperFirstAtBeginDocument{\AtBeginDocument}
\HyperFirstAtBeginDocument{\ifx\hyper@anchor\@undefined
\global\let\oldcontentsline\contentsline
\gdef\contentsline#1#2#3#4{\oldcontentsline{#1}{#2}{#3}}
\global\let\oldnewlabel\newlabel
\gdef\newlabel#1#2{\newlabelxx{#1}#2}
\gdef\newlabelxx#1#2#3#4#5#6{\oldnewlabel{#1}{{#2}{#3}}}
\AtEndDocument{\ifx\hyper@anchor\@undefined
\let\contentsline\oldcontentsline
\let\newlabel\oldnewlabel
\fi}
\fi}
\global\let\hyper@last\relax 
\gdef\HyperFirstAtBeginDocument#1{#1}
\providecommand\HyField@AuxAddToFields[1]{}
\providecommand\HyField@AuxAddToCoFields[2]{}
\providecommand\AtEndDvi@Check{}
\AtEndDvi@Check
\@writefile{toc}{\beamer@endinputifotherversion {3.33pt}}
\@writefile{nav}{\beamer@endinputifotherversion {3.33pt}}
\select@language{english}
\@writefile{toc}{\select@language{english}}
\@writefile{lof}{\select@language{english}}
\@writefile{lot}{\select@language{english}}
\@writefile{nav}{\headcommand {\slideentry {0}{0}{1}{1/1}{}{0}}}
\@writefile{nav}{\headcommand {\beamer@framepages {1}{1}}}
\@writefile{nav}{\headcommand {\sectionentry {1}{Motivation}{2}{Motivation}{0}}}
\@writefile{nav}{\headcommand {\beamer@sectionpages {1}{1}}}
\@writefile{nav}{\headcommand {\beamer@subsectionpages {1}{1}}}
\pgfsyspdfmark {pgfid1}{1864679}{10579343}
\@writefile{nav}{\headcommand {\slideentry {1}{0}{2}{2/2}{}{0}}}
\@writefile{nav}{\headcommand {\beamer@framepages {2}{2}}}
\@writefile{nav}{\headcommand {\slideentry {1}{0}{3}{3/20}{}{0}}}
\@writefile{nav}{\headcommand {\beamer@framepages {3}{20}}}
\@writefile{nav}{\headcommand {\slideentry {1}{0}{4}{21/29}{}{0}}}
\@writefile{nav}{\headcommand {\beamer@framepages {21}{29}}}
\pgfsyspdfmark {pgfid2}{11814351}{10579343}
\pgfsyspdfmark {pgfid3}{5772725}{10561690}
\pgfsyspdfmark {pgfid7}{5772725}{10412414}
\@writefile{nav}{\headcommand {\slideentry {1}{0}{5}{30/32}{}{0}}}
\@writefile{nav}{\headcommand {\beamer@framepages {30}{32}}}
\@writefile{nav}{\headcommand {\slideentry {1}{0}{6}{33/33}{}{0}}}
\@writefile{nav}{\headcommand {\beamer@framepages {33}{33}}}
\@writefile{toc}{\beamer@sectionintoc {2}{Experimental methods}{34}{0}{1}}
\@writefile{nav}{\headcommand {\sectionentry {2}{Experimental methods}{34}{Experimental methods}{0}}}
\@writefile{nav}{\headcommand {\beamer@sectionpages {2}{33}}}
\@writefile{nav}{\headcommand {\beamer@subsectionpages {2}{33}}}
\@writefile{nav}{\headcommand {\slideentry {2}{0}{7}{34/34}{}{0}}}
\@writefile{nav}{\headcommand {\beamer@framepages {34}{34}}}
\@writefile{nav}{\headcommand {\slideentry {2}{0}{8}{35/43}{}{0}}}
\@writefile{nav}{\headcommand {\beamer@framepages {35}{43}}}
\@writefile{nav}{\headcommand {\slideentry {2}{0}{9}{44/44}{}{0}}}
\@writefile{nav}{\headcommand {\beamer@framepages {44}{44}}}
\@writefile{nav}{\headcommand {\slideentry {2}{0}{10}{45/56}{}{0}}}
\@writefile{nav}{\headcommand {\beamer@framepages {45}{56}}}
\@writefile{nav}{\headcommand {\slideentry {2}{0}{11}{57/59}{}{0}}}
\@writefile{nav}{\headcommand {\beamer@framepages {57}{59}}}
\@writefile{nav}{\headcommand {\slideentry {2}{0}{12}{60/60}{}{0}}}
\@writefile{nav}{\headcommand {\beamer@framepages {60}{60}}}
\@writefile{nav}{\headcommand {\slideentry {2}{0}{13}{61/61}{}{0}}}
\@writefile{nav}{\headcommand {\beamer@framepages {61}{61}}}
\@writefile{toc}{\beamer@sectionintoc {3}{Lagrangian statistics of inhomogeneous turbulence }{62}{0}{2}}
\@writefile{nav}{\headcommand {\sectionentry {3}{Lagrangian statistics of inhomogeneous turbulence }{62}{Lagrangian statistics of inhomogeneous turbulence }{0}}}
\@writefile{nav}{\headcommand {\beamer@sectionpages {34}{61}}}
\@writefile{nav}{\headcommand {\beamer@subsectionpages {34}{61}}}
\@writefile{nav}{\headcommand {\slideentry {3}{0}{14}{62/62}{}{0}}}
\@writefile{nav}{\headcommand {\beamer@framepages {62}{62}}}
\newlabel{sec:lagrangian_statistics}{{3}{63}{Lagrangian statistics of inhomogeneous turbulence}{Doc-Start}{}}
\@writefile{snm}{\beamer@slide {sec:lagrangian_statistics}{63}}
\@writefile{nav}{\headcommand {\slideentry {3}{0}{15}{63/63}{}{0}}}
\@writefile{nav}{\headcommand {\beamer@framepages {63}{63}}}
\@writefile{nav}{\headcommand {\slideentry {3}{0}{16}{64/64}{}{0}}}
\@writefile{nav}{\headcommand {\beamer@framepages {64}{64}}}
\@writefile{nav}{\headcommand {\slideentry {3}{0}{17}{65/65}{}{0}}}
\@writefile{nav}{\headcommand {\beamer@framepages {65}{65}}}
\@writefile{nav}{\headcommand {\slideentry {3}{0}{18}{66/67}{}{0}}}
\@writefile{nav}{\headcommand {\beamer@framepages {66}{67}}}
\@writefile{nav}{\headcommand {\slideentry {3}{0}{19}{68/69}{}{0}}}
\@writefile{nav}{\headcommand {\beamer@framepages {68}{69}}}
\@writefile{nav}{\headcommand {\slideentry {3}{0}{20}{70/73}{}{0}}}
\@writefile{nav}{\headcommand {\beamer@framepages {70}{73}}}
\@writefile{nav}{\headcommand {\slideentry {3}{0}{21}{74/74}{}{0}}}
\@writefile{nav}{\headcommand {\beamer@framepages {74}{74}}}
\@writefile{nav}{\headcommand {\slideentry {3}{0}{22}{75/75}{}{0}}}
\@writefile{nav}{\headcommand {\beamer@framepages {75}{75}}}
\@writefile{nav}{\headcommand {\slideentry {3}{0}{23}{76/78}{}{0}}}
\@writefile{nav}{\headcommand {\beamer@framepages {76}{78}}}
\@writefile{toc}{\beamer@sectionintoc {4}{Non-tracer particle Lagrangian statistics}{79}{0}{3}}
\@writefile{nav}{\headcommand {\sectionentry {4}{Non-tracer particle Lagrangian statistics}{79}{Non-tracer particle Lagrangian statistics}{0}}}
\@writefile{nav}{\headcommand {\beamer@sectionpages {62}{78}}}
\@writefile{nav}{\headcommand {\beamer@subsectionpages {62}{78}}}
\@writefile{nav}{\headcommand {\slideentry {4}{0}{24}{79/79}{}{0}}}
\@writefile{nav}{\headcommand {\beamer@framepages {79}{79}}}
\newlabel{sec:non_tracer_particle_statistics}{{4}{80}{Non-tracer particle Lagrangian statistics}{Doc-Start}{}}
\@writefile{snm}{\beamer@slide {sec:non_tracer_particle_statistics}{80}}
\@writefile{nav}{\headcommand {\slideentry {4}{0}{25}{80/81}{}{0}}}
\@writefile{nav}{\headcommand {\beamer@framepages {80}{81}}}
\@writefile{nav}{\headcommand {\slideentry {4}{0}{26}{82/82}{}{0}}}
\@writefile{nav}{\headcommand {\beamer@framepages {82}{82}}}
\@writefile{nav}{\headcommand {\slideentry {4}{0}{27}{83/84}{}{0}}}
\@writefile{nav}{\headcommand {\beamer@framepages {83}{84}}}
\@writefile{nav}{\headcommand {\slideentry {4}{0}{28}{85/85}{}{0}}}
\@writefile{nav}{\headcommand {\beamer@framepages {85}{85}}}
\@writefile{nav}{\headcommand {\slideentry {4}{0}{29}{86/86}{}{0}}}
\@writefile{nav}{\headcommand {\beamer@framepages {86}{86}}}
\@writefile{nav}{\headcommand {\slideentry {4}{0}{30}{87/90}{}{0}}}
\@writefile{nav}{\headcommand {\beamer@framepages {87}{90}}}
\@writefile{nav}{\headcommand {\slideentry {4}{0}{31}{91/92}{}{0}}}
\@writefile{nav}{\headcommand {\beamer@framepages {91}{92}}}
\@writefile{nav}{\headcommand {\sectionentry {5}{Conclusions and perspectives}{93}{Conclusions and perspectives}{0}}}
\@writefile{nav}{\headcommand {\beamer@sectionpages {79}{92}}}
\@writefile{nav}{\headcommand {\beamer@subsectionpages {79}{92}}}
\newlabel{sec:conclusions_and_perspectives}{{5}{93}{Conclusions and perspectives}{Doc-Start}{}}
\@writefile{snm}{\beamer@slide {sec:conclusions_and_perspectives}{93}}
\@writefile{nav}{\headcommand {\slideentry {5}{0}{32}{93/96}{}{0}}}
\@writefile{nav}{\headcommand {\beamer@framepages {93}{96}}}
\@writefile{nav}{\headcommand {\slideentry {5}{0}{33}{97/99}{}{0}}}
\@writefile{nav}{\headcommand {\beamer@framepages {97}{99}}}
\@writefile{nav}{\headcommand {\slideentry {5}{0}{34}{100/100}{}{0}}}
\@writefile{nav}{\headcommand {\beamer@framepages {100}{100}}}
\pgfsyspdfmark {pgfid11}{1864679}{10579343}
\pgfsyspdfmark {pgfid12}{1864679}{15168114}
\@writefile{nav}{\headcommand {\slideentry {5}{0}{35}{101/102}{}{0}}}
\@writefile{nav}{\headcommand {\beamer@framepages {101}{102}}}
\@writefile{nav}{\headcommand {\beamer@partpages {1}{102}}}
\@writefile{nav}{\headcommand {\beamer@subsectionpages {93}{102}}}
\@writefile{nav}{\headcommand {\beamer@sectionpages {93}{102}}}
\@writefile{nav}{\headcommand {\beamer@documentpages {102}}}
\@writefile{nav}{\headcommand {\def \inserttotalframenumber {32}}}
\zref@newlabel{LastPage}{\default{5}\page{102}\abspage{102}}
